basculeD8Bits/simulation/qsim/BasculeD8Bits.msim.vcd
$comment
	File created using the following command:
		vcd file BasculeD8Bits.msim.vcd -direction
$end
$date
	Sat Oct 09 17:28:23 2021
$end
$version
	ModelSim Version 10.5b
$end
$timescale
	1ps
$end

$scope module BasculeD8Bits_vlg_vec_tst $end
$var reg 1 ! Clk $end
$var reg 8 " D [7:0] $end
$var wire 1 # Q [7] $end
$var wire 1 $ Q [6] $end
$var wire 1 % Q [5] $end
$var wire 1 & Q [4] $end
$var wire 1 ' Q [3] $end
$var wire 1 ( Q [2] $end
$var wire 1 ) Q [1] $end
$var wire 1 * Q [0] $end

$scope module i1 $end
$var wire 1 + gnd $end
$var wire 1 , vcc $end
$var wire 1 - unknown $end
$var tri1 1 . devclrn $end
$var tri1 1 / devpor $end
$var tri1 1 0 devoe $end
$var wire 1 1 Q[0]~output_o $end
$var wire 1 2 Q[1]~output_o $end
$var wire 1 3 Q[2]~output_o $end
$var wire 1 4 Q[3]~output_o $end
$var wire 1 5 Q[4]~output_o $end
$var wire 1 6 Q[5]~output_o $end
$var wire 1 7 Q[6]~output_o $end
$var wire 1 8 Q[7]~output_o $end
$var wire 1 9 Clk~input_o $end
$var wire 1 : D[0]~input_o $end
$var wire 1 ; Q[0]~reg0_q $end
$var wire 1 < D[1]~input_o $end
$var wire 1 = Q[1]~reg0_q $end
$var wire 1 > D[2]~input_o $end
$var wire 1 ? Q[2]~reg0_q $end
$var wire 1 @ D[3]~input_o $end
$var wire 1 A Q[3]~reg0_q $end
$var wire 1 B D[4]~input_o $end
$var wire 1 C Q[4]~reg0_q $end
$var wire 1 D D[5]~input_o $end
$var wire 1 E Q[5]~reg0_q $end
$var wire 1 F D[6]~input_o $end
$var wire 1 G Q[6]~reg0_q $end
$var wire 1 H D[7]~input_o $end
$var wire 1 I Q[7]~reg0_q $end
$upscope $end
$upscope $end
$enddefinitions $end
#0
$dumpvars
0!
b10101100 "
0*
0)
0(
0'
0&
0%
0$
0#
0+
1,
x-
1.
1/
10
01
02
03
04
05
06
07
08
09
0:
0;
0<
0=
1>
0?
1@
0A
0B
0C
1D
0E
0F
0G
1H
0I
$end
#5000000
b11101100 "
b11111100 "
b11110100 "
b11110110 "
1<
0@
1B
1F
#7000000
1!
19
#10000000
b11010110 "
b11010010 "
b11011010 "
b11011000 "
0!
09
0<
0>
1@
0D
1=
1?
1C
1E
1G
1I
18
17
16
15
13
12
1)
1(
1&
1%
1$
1#
#15000000
b1011000 "
b11000 "
b111000 "
b110000 "
b110010 "
1<
0@
1D
0F
0H
#17000000
1!
19
#20000000
b110011 "
b1110011 "
b1110001 "
0!
09
1:
0<
1F
0?
0G
0I
08
07
03
0(
0$
0#
#25000000
b1110101 "
b1010101 "
b1010111 "
1<
1>
0D
#27000000
1!
19
#30000000
b1011111 "
b1011110 "
b1011010 "
b1111010 "
b1111000 "
0!
09
0:
0<
0>
1@
1D
1;
1?
0E
1G
17
06
13
11
1*
1(
0%
1$
#35000000
b111000 "
b11000 "
b11010 "
1<
0D
0F
#37000000
1!
19
#40000000
b1011010 "
0!
09
1F
0;
0?
1A
0G
07
14
03
01
0*
0(
1'
0$
#45000000
b1001010 "
b1000010 "
b1000011 "
b1000001 "
b1 "
1:
0<
0@
0B
0F
#47000000
1!
19
#50000000
b10000001 "
b10001001 "
b10001011 "
0!
09
1<
1@
1H
1;
0=
0A
0C
05
04
02
11
1*
0)
0'
0&
#55000000
b10001111 "
b10001110 "
b10001100 "
0:
0<
1>
#57000000
1!
19
#60000000
b1100 "
b1000 "
0!
09
0>
0H
0;
1?
1A
1I
18
14
13
01
0*
1(
1'
1#
#65000000
b11000 "
b1011000 "
b1011100 "
1>
1B
1F
#67000000
1!
19
#70000000
b1010100 "
b1010101 "
b10101 "
0!
09
1:
0@
0F
1C
1G
0I
08
17
15
1&
1$
0#
#75000000
b101 "
b1101 "
b1001101 "
1@
0B
1F
#77000000
1!
19
#80000000
b1101101 "
b1101111 "
b11101111 "
b11101011 "
b11111011 "
b11110011 "
b10110011 "
0!
09
1<
0>
0@
1B
1D
0F
1H
1;
0C
05
11
1*
0&
#85000000
b10010011 "
b10010001 "
b10001 "
b10101 "
b11101 "
b1011101 "
0<
1>
1@
0D
1F
0H
#87000000
1!
19
#90000000
b1011100 "
b1001100 "
b1101100 "
b1101110 "
b11101110 "
0!
09
0:
1<
0B
1D
1H
1C
15
1&
#95000000
b11100110 "
b10100110 "
b10100100 "
b100100 "
0<
0@
0F
0H
#97000000
1!
19
