diviseurFrequence/simulation/qsim/DiviseurFrequence.msim.vcd
$comment
	File created using the following command:
		vcd file DiviseurFrequence.msim.vcd -direction
$end
$date
	Fri Sep 17 15:00:27 2021
$end
$version
	ModelSim Version 10.5b
$end
$timescale
	1ps
$end

$scope module DiviseurFrequence_vlg_vec_tst $end
$var reg 1 ! ClkIn $end
$var wire 1 " ClkOut $end

$scope module i1 $end
$var wire 1 # gnd $end
$var wire 1 $ vcc $end
$var wire 1 % unknown $end
$var tri1 1 & devclrn $end
$var tri1 1 ' devpor $end
$var tri1 1 ( devoe $end
$var wire 1 ) ClkOut~output_o $end
$var wire 1 * ClkIn~input_o $end
$var wire 1 + Cnt[0]~12_combout $end
$var wire 1 , Cnt[1]~4_combout $end
$var wire 1 - Cnt[1]~5 $end
$var wire 1 . Cnt[2]~6_combout $end
$var wire 1 / Cnt[2]~7 $end
$var wire 1 0 Cnt[3]~8_combout $end
$var wire 1 1 LessThan0~0_combout $end
$var wire 1 2 Cnt[3]~9 $end
$var wire 1 3 Cnt[4]~10_combout $end
$var wire 1 4 LessThan0~1_combout $end
$var wire 1 5 ClkOut~reg0_q $end
$var wire 1 6 Cnt [4] $end
$var wire 1 7 Cnt [3] $end
$var wire 1 8 Cnt [2] $end
$var wire 1 9 Cnt [1] $end
$var wire 1 : Cnt [0] $end
$upscope $end
$upscope $end
$enddefinitions $end
#0
$dumpvars
0!
0"
0#
1$
x%
1&
1'
1(
0)
0*
1+
0,
0-
0.
1/
00
11
02
03
14
05
0:
09
08
07
06
$end
#500000
1!
1*
#1000000
0!
0*
1:
15
1)
1"
1,
0+
#1500000
1!
1*
#2000000
0!
0*
0:
19
1+
#2500000
1!
1*
#3000000
0!
0*
1:
1-
0,
0+
1.
#3500000
1!
1*
#4000000
0!
0*
0:
09
18
0-
0/
1+
0.
1/
1.
10
00
#4500000
1!
1*
#5000000
0!
0*
1:
1,
0+
#5500000
1!
1*
#6000000
0!
0*
0:
19
1+
#6500000
1!
1*
#7000000
0!
0*
1:
1-
0,
0+
0/
0.
10
#7500000
1!
1*
#8000000
0!
0*
0:
09
08
17
0-
1/
12
1+
1.
00
02
0.
10
13
03
#8500000
1!
1*
#9000000
0!
0*
1:
01
1,
0+
#9500000
1!
1*
#10000000
0!
0*
0:
19
1+
#10500000
1!
1*
#11000000
0!
0*
1:
1-
0,
0+
1.
#11500000
1!
1*
#12000000
0!
0*
0:
09
18
0-
0/
1+
0.
1/
12
1.
00
02
10
13
03
#12500000
1!
1*
#13000000
0!
0*
1:
1,
0+
#13500000
1!
1*
#14000000
0!
0*
0:
19
1+
#14500000
1!
1*
#15000000
0!
0*
1:
1-
0,
0+
0/
0.
12
00
13
#15500000
1!
1*
#16000000
0!
0*
0:
09
08
07
16
11
0-
1/
02
1+
1.
10
04
03
14
0.
00
13
#16500000
1!
1*
#17000000
0!
0*
1:
1,
0+
#17500000
1!
1*
#18000000
0!
0*
0:
19
1+
#18500000
1!
1*
#19000000
0!
0*
1:
1-
0,
0+
1.
#19500000
1!
1*
#20000000
0!
0*
0:
09
18
0-
0/
1+
0.
1/
1.
10
00
#20500000
1!
1*
#21000000
0!
0*
1:
1,
0+
#21500000
1!
1*
#22000000
0!
0*
0:
19
1+
#22500000
1!
1*
#23000000
0!
0*
1:
1-
0,
0+
0/
0.
10
#23500000
1!
1*
#24000000
0!
0*
0:
09
08
17
0-
1/
12
1+
1.
00
02
0.
10
03
13
#24500000
1!
1*
#25000000
0!
0*
1:
01
1,
0+
04
#25500000
1!
1*
#26000000
0!
0*
0:
19
05
0)
0"
1+
#26500000
1!
1*
#27000000
0!
0*
1:
1-
0,
0+
1.
#27500000
1!
1*
#28000000
0!
0*
0:
09
18
0-
0/
1+
0.
1/
12
1.
00
02
10
03
13
#28500000
1!
1*
#29000000
0!
0*
1:
1,
0+
#29500000
1!
1*
#30000000
0!
0*
0:
19
1+
#30500000
1!
1*
#31000000
0!
0*
1:
1-
0,
0+
0/
0.
12
00
03
#31500000
1!
1*
#32000000
0!
0*
0:
09
08
07
06
11
0-
1/
02
1+
1.
10
14
13
0.
00
03
#32500000
1!
1*
#33000000
0!
0*
1:
15
1)
1"
1,
0+
#33500000
1!
1*
#34000000
0!
0*
0:
19
1+
#34500000
1!
1*
#35000000
0!
0*
1:
1-
0,
0+
1.
#35500000
1!
1*
#36000000
0!
0*
0:
09
18
0-
0/
1+
0.
1/
1.
10
00
#36500000
1!
1*
#37000000
0!
0*
1:
1,
0+
#37500000
1!
1*
#38000000
0!
0*
0:
19
1+
#38500000
1!
1*
#39000000
0!
0*
1:
1-
0,
0+
0/
0.
10
#39500000
1!
1*
#40000000
0!
0*
0:
09
08
17
0-
1/
12
1+
1.
00
02
0.
10
13
03
#40500000
1!
1*
#41000000
0!
0*
1:
01
1,
0+
#41500000
1!
1*
#42000000
0!
0*
0:
19
1+
#42500000
1!
1*
#43000000
0!
0*
1:
1-
0,
0+
1.
#43500000
1!
1*
#44000000
0!
0*
0:
09
18
0-
0/
1+
0.
1/
12
1.
00
02
10
13
03
#44500000
1!
1*
#45000000
0!
0*
1:
1,
0+
#45500000
1!
1*
#46000000
0!
0*
0:
19
1+
#46500000
1!
1*
#47000000
0!
0*
1:
1-
0,
0+
0/
0.
12
00
13
#47500000
1!
1*
#48000000
0!
0*
0:
09
08
07
16
11
0-
1/
02
1+
1.
10
04
03
14
0.
00
13
#48500000
1!
1*
#49000000
0!
0*
1:
1,
0+
#49500000
1!
1*
#50000000
0!
0*
0:
19
1+
#50500000
1!
1*
#51000000
0!
0*
1:
1-
0,
0+
1.
#51500000
1!
1*
#52000000
0!
0*
0:
09
18
0-
0/
1+
0.
1/
1.
10
00
#52500000
1!
1*
#53000000
0!
0*
1:
1,
0+
#53500000
1!
1*
#54000000
0!
0*
0:
19
1+
#54500000
1!
1*
#55000000
0!
0*
1:
1-
0,
0+
0/
0.
10
#55500000
1!
1*
#56000000
0!
0*
0:
09
08
17
0-
1/
12
1+
1.
00
02
0.
10
03
13
#56500000
1!
1*
#57000000
0!
0*
1:
01
1,
0+
04
#57500000
1!
1*
#58000000
0!
0*
0:
19
05
0)
0"
1+
#58500000
1!
1*
#59000000
0!
0*
1:
1-
0,
0+
1.
#59500000
1!
1*
#60000000
0!
0*
0:
09
18
0-
0/
1+
0.
1/
12
1.
00
02
10
03
13
#60500000
1!
1*
#61000000
0!
0*
1:
1,
0+
#61500000
1!
1*
#62000000
0!
0*
0:
19
1+
#62500000
1!
1*
#63000000
0!
0*
1:
1-
0,
0+
0/
0.
12
00
03
#63500000
1!
1*
#64000000
0!
0*
0:
09
08
07
06
11
0-
1/
02
1+
1.
10
14
13
0.
00
03
#64500000
1!
1*
#65000000
0!
0*
1:
15
1)
1"
1,
0+
#65500000
1!
1*
#66000000
0!
0*
0:
19
1+
#66500000
1!
1*
#67000000
0!
0*
1:
1-
0,
0+
1.
#67500000
1!
1*
#68000000
0!
0*
0:
09
18
0-
0/
1+
0.
1/
1.
10
00
#68500000
1!
1*
#69000000
0!
0*
1:
1,
0+
#69500000
1!
1*
#70000000
0!
0*
0:
19
1+
#70500000
1!
1*
#71000000
0!
0*
1:
1-
0,
0+
0/
0.
10
#71500000
1!
1*
#72000000
0!
0*
0:
09
08
17
0-
1/
12
1+
1.
00
02
0.
10
13
03
#72500000
1!
1*
#73000000
0!
0*
1:
01
1,
0+
#73500000
1!
1*
#74000000
0!
0*
0:
19
1+
#74500000
1!
1*
#75000000
0!
0*
1:
1-
0,
0+
1.
#75500000
1!
1*
#76000000
0!
0*
0:
09
18
0-
0/
1+
0.
1/
12
1.
00
02
10
13
03
#76500000
1!
1*
#77000000
0!
0*
1:
1,
0+
#77500000
1!
1*
#78000000
0!
0*
0:
19
1+
#78500000
1!
1*
#79000000
0!
0*
1:
1-
0,
0+
0/
0.
12
00
13
#79500000
1!
1*
#80000000
0!
0*
0:
09
08
07
16
11
0-
1/
02
1+
1.
10
04
03
14
0.
00
13
#80500000
1!
1*
#81000000
0!
0*
1:
1,
0+
#81500000
1!
1*
#82000000
0!
0*
0:
19
1+
#82500000
1!
1*
#83000000
0!
0*
1:
1-
0,
0+
1.
#83500000
1!
1*
#84000000
0!
0*
0:
09
18
0-
0/
1+
0.
1/
1.
10
00
#84500000
1!
1*
#85000000
0!
0*
1:
1,
0+
#85500000
1!
1*
#86000000
0!
0*
0:
19
1+
#86500000
1!
1*
#87000000
0!
0*
1:
1-
0,
0+
0/
0.
10
#87500000
1!
1*
#88000000
0!
0*
0:
09
08
17
0-
1/
12
1+
1.
00
02
0.
10
03
13
#88500000
1!
1*
#89000000
0!
0*
1:
01
1,
0+
04
#89500000
1!
1*
#90000000
0!
0*
0:
19
05
0)
0"
1+
#90500000
1!
1*
#91000000
0!
0*
1:
1-
0,
0+
1.
#91500000
1!
1*
#92000000
0!
0*
0:
09
18
0-
0/
1+
0.
1/
12
1.
00
02
10
03
13
#92500000
1!
1*
#93000000
0!
0*
1:
1,
0+
#93500000
1!
1*
#94000000
0!
0*
0:
19
1+
#94500000
1!
1*
#95000000
0!
0*
1:
1-
0,
0+
0/
0.
12
00
03
#95500000
1!
1*
#96000000
0!
0*
0:
09
08
07
06
11
0-
1/
02
1+
1.
10
14
13
0.
00
03
#96500000
1!
1*
#97000000
0!
0*
1:
15
1)
1"
1,
0+
#97500000
1!
1*
#98000000
0!
0*
0:
19
1+
#98500000
1!
1*
#99000000
0!
0*
1:
1-
0,
0+
1.
#99500000
1!
1*
