aff7SegDec/simulation/qsim/Aff7SegDec.msim.vcd
$comment
	File created using the following command:
		vcd file Aff7SegDec.msim.vcd -direction
$end
$date
	Mon Sep 27 15:38:33 2021
$end
$version
	ModelSim Version 10.5b
$end
$timescale
	1ps
$end

$scope module Aff7SegDec_vlg_vec_tst $end
$var reg 4 ! Byte [3:0] $end
$var wire 1 " Lsq [6] $end
$var wire 1 # Lsq [5] $end
$var wire 1 $ Lsq [4] $end
$var wire 1 % Lsq [3] $end
$var wire 1 & Lsq [2] $end
$var wire 1 ' Lsq [1] $end
$var wire 1 ( Lsq [0] $end

$scope module i1 $end
$var wire 1 ) gnd $end
$var wire 1 * vcc $end
$var wire 1 + unknown $end
$var tri1 1 , devclrn $end
$var tri1 1 - devpor $end
$var tri1 1 . devoe $end
$var wire 1 / Lsq[0]~output_o $end
$var wire 1 0 Lsq[1]~output_o $end
$var wire 1 1 Lsq[2]~output_o $end
$var wire 1 2 Lsq[3]~output_o $end
$var wire 1 3 Lsq[4]~output_o $end
$var wire 1 4 Lsq[5]~output_o $end
$var wire 1 5 Lsq[6]~output_o $end
$var wire 1 6 Byte[0]~input_o $end
$var wire 1 7 Byte[1]~input_o $end
$var wire 1 8 Byte[2]~input_o $end
$var wire 1 9 Byte[3]~input_o $end
$var wire 1 : Mux0~0_combout $end
$var wire 1 ; Mux1~0_combout $end
$var wire 1 < Mux2~0_combout $end
$var wire 1 = Mux3~0_combout $end
$var wire 1 > Mux4~0_combout $end
$var wire 1 ? Mux5~0_combout $end
$var wire 1 @ Mux6~0_combout $end
$var wire 1 A Mux7~0_combout $end
$var wire 1 B iLsq [6] $end
$var wire 1 C iLsq [5] $end
$var wire 1 D iLsq [4] $end
$var wire 1 E iLsq [3] $end
$var wire 1 F iLsq [2] $end
$var wire 1 G iLsq [1] $end
$var wire 1 H iLsq [0] $end
$upscope $end
$upscope $end
$enddefinitions $end
#0
$dumpvars
b0 !
1(
0'
0&
0%
0$
0#
0"
0)
1*
x+
1,
1-
1.
1/
00
01
02
03
04
05
06
07
08
09
0:
1;
0<
0=
0>
0?
0@
0A
0H
1G
1F
1E
1D
1C
1B
$end
#100000
b1 !
16
1A
1>
1=
1<
0G
0F
0E
0B
15
12
11
10
1'
1&
1%
1"
#200000
b11 !
b10 !
06
17
0A
1?
0>
0=
1:
1H
1F
1E
0D
1B
05
13
02
01
0/
0(
0&
0%
1$
0"
#300000
b11 !
16
0?
1=
0F
1D
03
11
1&
0$
#400000
b111 !
b101 !
b100 !
06
07
18
1A
1>
0<
1G
0E
0B
15
12
00
0'
1%
1"
#500000
b101 !
16
0A
1@
0>
1E
0C
1B
05
14
02
0%
1#
0"
#600000
b111 !
b110 !
06
17
1A
0@
0=
1F
1C
0B
15
04
01
0&
0#
1"
#700000
b111 !
16
0A
1>
1=
1<
0:
0H
0G
0F
0E
1B
05
12
11
10
1/
1(
1'
1&
1%
0"
#800000
b1111 !
b1011 !
b1001 !
b1000 !
06
07
08
19
0>
0<
1:
0=
1F
1H
1G
1E
02
00
0/
01
0&
0(
0'
0%
#900000
b1001 !
16
1=
0F
11
1&
