avertisseurLED/simulation/qsim/AvertisseurLED.msim.vcd
$comment
	File created using the following command:
		vcd file AvertisseurLED.msim.vcd -direction
$end
$date
	Thu Sep 23 16:53:07 2021
$end
$version
	ModelSim Version 10.5b
$end
$timescale
	1ps
$end

$scope module AvertisseurLED_vlg_vec_tst $end
$var reg 8 ! Dist [7:0] $end
$var wire 1 " Led $end

$scope module i1 $end
$var wire 1 # gnd $end
$var wire 1 $ vcc $end
$var wire 1 % unknown $end
$var tri1 1 & devclrn $end
$var tri1 1 ' devpor $end
$var tri1 1 ( devoe $end
$var wire 1 ) Dist[3]~input_o $end
$var wire 1 * Dist[2]~input_o $end
$var wire 1 + Dist[1]~input_o $end
$var wire 1 , Dist[0]~input_o $end
$var wire 1 - Led~output_o $end
$var wire 1 . Dist[4]~input_o $end
$var wire 1 / Dist[5]~input_o $end
$var wire 1 0 Dist[6]~input_o $end
$var wire 1 1 Dist[7]~input_o $end
$var wire 1 2 LessThan0~0_combout $end
$upscope $end
$upscope $end
$enddefinitions $end
#0
$dumpvars
b10010000 !
0"
0#
1$
x%
1&
1'
1(
0)
0*
0+
0,
0-
1.
0/
00
11
12
$end
#10000
b11010000 !
b11110000 !
b11100000 !
b11100100 !
b11100101 !
1,
1*
0.
1/
10
#20000
b11101101 !
b11101100 !
0,
1)
#30000
b11101110 !
b10101110 !
b10100110 !
b10100111 !
1,
1+
0)
00
#40000
b10000111 !
b10010111 !
b10010101 !
b11010101 !
b11011101 !
0+
1)
1.
0/
10
#50000
b1011101 !
b1011111 !
b11111 !
1+
00
01
#60000
b11011 !
b10011 !
b10001 !
0+
0*
0)
#70000
b110001 !
b100001 !
b10100001 !
b11100001 !
b11100011 !
1+
0.
1/
10
11
#80000
b11100010 !
b11101010 !
b11001010 !
b1001010 !
b1001000 !
0,
0+
1)
0/
01
#90000
b1011000 !
b11000 !
b10000 !
b10010000 !
b10010010 !
1+
0)
1.
00
11
#100000
b10010110 !
b10010111 !
b10110111 !
1,
1*
1/
#110000
b10100111 !
b10101111 !
b101111 !
b101011 !
b101010 !
0,
0*
1)
0.
01
#120000
b101000 !
b111000 !
b10111000 !
b10111100 !
0+
1*
1.
11
#130000
b11111100 !
b11011100 !
b11001100 !
0.
0/
10
#140000
b11001110 !
b11001010 !
b11101010 !
1+
0*
1/
#150000
b11100010 !
b11100011 !
b10100011 !
b10110011 !
b10010011 !
1,
0)
1.
0/
00
#160000
b10011 !
b10001 !
b10101 !
b11101 !
b1011101 !
b1001101 !
0+
1*
1)
0.
10
01
#170000
b1001100 !
b11001100 !
b11001000 !
b11000000 !
b11010000 !
0,
0*
0)
1.
11
#180000
b11010010 !
b10010010 !
b10010011 !
b10011 !
b11011 !
1,
1+
1)
00
01
#190000
b111011 !
b111111 !
b111101 !
b1111101 !
b11111101 !
0+
1*
1/
10
11
#200000
b11101101 !
b11101100 !
b11100100 !
b11000100 !
b11000000 !
b11000010 !
b10000010 !
b10 !
0,
1+
0*
0)
0.
0/
00
01
02
1-
1"
#210000
b10010 !
b10011 !
b10111 !
b10101 !
b10010101 !
1,
0+
1*
1.
11
12
0-
0"
#220000
b10000101 !
b10000100 !
b10000000 !
0,
0*
0.
#230000
b11000000 !
b11000010 !
1+
10
#240000
b11100010 !
b1100010 !
b100010 !
1/
00
01
#250000
b101010 !
b111010 !
b111110 !
b11110 !
b1011110 !
1*
1)
1.
0/
10
#260000
b1011111 !
b1011101 !
b11011101 !
b10011101 !
1,
0+
00
11
#270000
b10010101 !
b10010001 !
b10110001 !
b10110000 !
b11110000 !
0,
0*
0)
1/
10
#280000
b11100000 !
b11100010 !
b1100010 !
b1101010 !
b1001010 !
b1001011 !
b1011 !
1,
1+
1)
0.
0/
00
01
02
1-
1"
#290000
b10001011 !
b10101011 !
b10101010 !
0,
1/
11
12
0-
0"
#300000
b10100010 !
0)
#310000
b10100110 !
b11100110 !
b1100110 !
b1000110 !
b1000111 !
1,
1*
0/
10
01
#320000
b1010111 !
b1010011 !
b11010011 !
b11110011 !
b11110010 !
0,
0*
1.
1/
11
#330000
b11111010 !
b10111010 !
b111010 !
b111011 !
1,
1)
00
01
#340000
b111111 !
b110111 !
b110110 !
0,
1*
0)
#350000
b110100 !
b10100 !
b1010100 !
0+
0/
10
#360000
b1000100 !
b11000100 !
b11000000 !
b11000010 !
b11100010 !
b10100010 !
1+
0*
0.
1/
00
11
#370000
b100010 !
b10 !
b1000010 !
0/
10
01
#380000
b1001010 !
b1001011 !
b1001111 !
1,
1*
1)
#390000
b1001101 !
b11001101 !
b11000101 !
b11000100 !
0,
0+
0)
11
#400000
b11100100 !
b10100100 !
1/
00
#410000
b10100000 !
b10000000 !
b11000000 !
0*
0/
10
#420000
b11010000 !
b11010010 !
b1010010 !
b1010011 !
b1010111 !
1,
1+
1*
1.
01
#430000
b1011111 !
b1001111 !
b11001111 !
b11001011 !
0*
1)
0.
11
#440000
b11101011 !
b11101001 !
b11100001 !
0+
0)
1/
#450000
b10100001 !
b10100000 !
b10110000 !
b110000 !
b110100 !
b10100 !
b10110 !
0,
1+
1*
1.
0/
00
01
#460000
b11110 !
b10011110 !
1)
11
#470000
b11011110 !
b11001110 !
b1001110 !
0.
10
01
#480000
b1001111 !
b1101111 !
b1101101 !
b101101 !
b111101 !
b10111101 !
1,
0+
1.
1/
00
11
#490000
b10111001 !
b10110001 !
b11110001 !
b1110001 !
0*
0)
10
01
#500000
b1010001 !
b1010011 !
b1000011 !
b1000111 !
b1001111 !
b1111 !
1+
1*
1)
0.
0/
00
02
1-
1"
#510000
b11111 !
b11011 !
b10011 !
b1010011 !
0*
0)
1.
10
12
0-
0"
#520000
b1000011 !
b1001011 !
b1011 !
1)
0.
00
02
1-
1"
#530000
b1010 !
b1110 !
0,
1*
#540000
b11110 !
b10110 !
b10010 !
0*
0)
1.
12
0-
0"
#550000
b10010010 !
b11010010 !
b11010110 !
1*
10
11
#560000
b11010111 !
b1010111 !
1,
01
#570000
b1010011 !
b11010011 !
0*
11
#580000
b11010001 !
b11000001 !
b11001001 !
b10001001 !
b10001000 !
b10001100 !
0,
0+
1*
1)
0.
00
#590000
b1100 !
b11100 !
b1011100 !
b1011101 !
b1011001 !
1,
0*
1.
10
01
#600000
b1111001 !
b1111011 !
b11111011 !
b10111011 !
b10111010 !
0,
1+
1/
00
11
#610000
b10110010 !
b10100010 !
b10100000 !
b100000 !
0+
0)
0.
01
#620000
b100100 !
b100 !
b1000100 !
b1000101 !
b1001101 !
b1011101 !
1,
1*
1)
1.
0/
10
#630000
b1011001 !
b1010001 !
b1000001 !
0*
0)
0.
#640000
b1100001 !
b100001 !
b100101 !
1*
1/
00
#650000
b10100101 !
b10100100 !
b10101100 !
b10111100 !
b10011100 !
b10011000 !
0,
0*
1)
1.
0/
11
#660000
b11000 !
b11001 !
b1001 !
b1101 !
1,
1*
0.
01
02
1-
1"
#670000
b1111 !
b101111 !
b10101111 !
b10111111 !
b10111011 !
1+
0*
1.
1/
11
12
0-
0"
#680000
b11111011 !
b11111010 !
b11011010 !
b11001010 !
b11001110 !
0,
1*
0.
0/
10
#690000
b11000110 !
b1000110 !
b110 !
b10110 !
b10010 !
0*
0)
1.
00
01
#700000
b10000 !
b10001 !
b1010001 !
1,
0+
10
#710000
b1110001 !
b1111001 !
b11111001 !
b11111101 !
b11111111 !
b11111110 !
0,
1+
1*
1)
1/
11
#720000
b11101110 !
b10101110 !
b101110 !
b101010 !
0*
0.
00
01
#730000
b1010 !
b11010 !
1.
0/
#740000
b11000 !
b11001 !
b1011001 !
b1011101 !
b1111101 !
b1101101 !
1,
0+
1*
0.
1/
10
#750000
b1100101 !
b1100100 !
b100100 !
b100 !
b10100 !
0,
0)
1.
0/
00
#760000
b10000 !
b11000 !
b11001 !
b1001 !
1,
0*
1)
0.
02
1-
1"
#770000
b10001001 !
b10101001 !
b10101101 !
b10100101 !
b10110101 !
1*
0)
1.
1/
11
12
0-
0"
#780000
b10110100 !
b10110000 !
b10100000 !
0,
0*
0.
#790000
b10100010 !
b10100110 !
1+
1*
#800000
b100110 !
b101110 !
b101100 !
b101000 !
0+
0*
1)
01
#810000
b1101000 !
b1001000 !
b1011000 !
b11011000 !
b11011100 !
1*
1.
0/
10
11
#820000
b11010100 !
b11010110 !
b11110110 !
b1110110 !
1+
0)
1/
01
#830000
b1100110 !
b1101110 !
b1101100 !
0+
1)
0.
#840000
b1101101 !
b101101 !
b101001 !
b1001 !
b10001001 !
b10011001 !
b10011011 !
1,
1+
0*
1.
0/
00
11
#850000
b10011010 !
b10111010 !
b111010 !
0,
1/
01
#860000
b110010 !
b1110010 !
b1110110 !
b1100110 !
b1100111 !
b1000111 !
b11000111 !
1,
1*
0)
0.
0/
10
11
#870000
b11000101 !
b11010101 !
b11110101 !
0+
1.
1/
#880000
b11110001 !
b11110000 !
b1110000 !
b1100000 !
b1000000 !
0,
0*
0.
0/
01
#890000
b1000100 !
b1000101 !
b1010101 !
1,
1*
1.
#900000
b1010111 !
1+
#910000
b10111 !
b10010111 !
b10110111 !
b10110011 !
b10100011 !
0*
0.
1/
00
11
#920000
b10100010 !
b10100000 !
b11100000 !
b1100000 !
b1100100 !
b1110100 !
0,
0+
1*
1.
10
01
#930000
b1111100 !
b1011100 !
b1011110 !
b11110 !
b11010 !
b1010 !
1+
0*
1)
0.
0/
00
02
1-
1"
#940000
b1011 !
b11 !
b100011 !
b100001 !
b110001 !
1,
0+
0)
1.
1/
12
0-
0"
#950000
b10110001 !
b11110001 !
b11110101 !
b11111101 !
b11101101 !
1*
1)
0.
10
11
#960000
b11001101 !
b11001001 !
b11000001 !
0*
0)
0/
#970000
b11000000 !
b11000010 !
b11000110 !
0,
1+
1*
#980000
b10000110 !
b10000100 !
b10000000 !
0+
0*
00
#990000
b0 !
b10000 !
b11000 !
b11001 !
b11101 !
1,
1*
1)
1.
01
