compteur8Bits/simulation/qsim/Compteur8Bits.msim.vcd
$comment
	File created using the following command:
		vcd file Compteur8Bits.msim.vcd -direction
$end
$date
	Mon Sep 27 15:55:43 2021
$end
$version
	ModelSim Version 10.5b
$end
$timescale
	1ps
$end

$scope module Compteur8Bits_vlg_vec_tst $end
$var reg 1 ! Clk $end
$var reg 1 " Signal $end
$var wire 1 # Q [0] $end
$var wire 1 $ Q [1] $end
$var wire 1 % Q [2] $end
$var wire 1 & Q [3] $end
$var wire 1 ' Q [4] $end
$var wire 1 ( Q [5] $end
$var wire 1 ) Q [6] $end
$var wire 1 * Q [7] $end

$scope module i1 $end
$var wire 1 + gnd $end
$var wire 1 , vcc $end
$var wire 1 - unknown $end
$var tri1 1 . devclrn $end
$var tri1 1 / devpor $end
$var tri1 1 0 devoe $end
$var wire 1 1 Q[7]~output_o $end
$var wire 1 2 Q[6]~output_o $end
$var wire 1 3 Q[5]~output_o $end
$var wire 1 4 Q[4]~output_o $end
$var wire 1 5 Q[3]~output_o $end
$var wire 1 6 Q[2]~output_o $end
$var wire 1 7 Q[1]~output_o $end
$var wire 1 8 Q[0]~output_o $end
$var wire 1 9 Clk~input_o $end
$var wire 1 : Q[7]~8_combout $end
$var wire 1 ; Signal~input_o $end
$var wire 1 < Signal_prec~q $end
$var wire 1 = always0~0_combout $end
$var wire 1 > Q[7]~reg0_q $end
$var wire 1 ? Q[7]~9 $end
$var wire 1 @ Q[6]~10_combout $end
$var wire 1 A Q[6]~reg0_q $end
$var wire 1 B Q[6]~11 $end
$var wire 1 C Q[5]~12_combout $end
$var wire 1 D Q[5]~reg0_q $end
$var wire 1 E Q[5]~13 $end
$var wire 1 F Q[4]~14_combout $end
$var wire 1 G Q[4]~reg0_q $end
$var wire 1 H Q[4]~15 $end
$var wire 1 I Q[3]~16_combout $end
$var wire 1 J Q[3]~reg0_q $end
$var wire 1 K Q[3]~17 $end
$var wire 1 L Q[2]~18_combout $end
$var wire 1 M Q[2]~reg0_q $end
$var wire 1 N Q[2]~19 $end
$var wire 1 O Q[1]~20_combout $end
$var wire 1 P Q[1]~reg0_q $end
$var wire 1 Q Q[1]~21 $end
$var wire 1 R Q[0]~22_combout $end
$var wire 1 S Q[0]~reg0_q $end
$upscope $end
$upscope $end
$enddefinitions $end
#0
$dumpvars
0!
1"
0*
0)
0(
0'
0&
0%
0$
0#
0+
1,
x-
1.
1/
10
01
02
03
04
05
06
07
08
09
1:
1;
0<
1=
0>
0?
0@
0A
1B
0C
0D
0E
0F
0G
1H
0I
0J
0K
0L
0M
1N
0O
0P
0Q
0R
0S
$end
#250000
1!
19
1<
0=
#500000
0!
09
#750000
1!
19
1>
11
1?
1*
0:
1@
#1000000
0!
09
#1250000
1!
19
1A
0>
01
12
0B
0?
1)
0*
0@
1:
1B
1C
1@
0C
#1500000
0!
09
#1750000
1!
19
1>
11
1?
1*
0:
0B
0@
1C
#2000000
0!
09
#2250000
1!
19
1D
0A
0>
01
02
13
1E
1B
0?
1(
0)
0*
0C
1@
1:
0E
1F
1C
0@
0F
#2500000
0!
09
#2750000
1!
19
1>
11
1?
1*
0:
1@
#3000000
0!
09
#3250000
1!
19
1A
0>
01
12
0B
0?
1)
0*
0@
1:
1E
1B
0C
1@
0E
1F
1C
0F
#3500000
0!
09
#3750000
1!
19
1>
11
1?
1*
0:
0B
0@
1E
0C
1F
#4000000
0!
09
#4250000
1!
19
1G
0D
0A
0>
01
02
03
14
0H
0E
1B
0?
1'
0(
0)
0*
0F
1C
1@
1:
1H
1I
1F
0C
0@
0I
#4500000
0!
09
#4750000
1!
19
1>
11
1?
1*
0:
1@
#5000000
0"
0!
0;
09
#5250000
1!
19
0<
1A
0>
01
12
0B
0?
1)
0*
0@
1:
1B
1C
1@
0C
#5500000
0!
09
#5750000
1!
19
1>
11
1?
1*
0:
0B
0@
1C
#6000000
0!
09
#6250000
1!
19
1D
0A
0>
01
02
13
1E
1B
0?
1(
0)
0*
0C
1@
1:
0H
0E
0F
1C
0@
1H
1I
1F
0I
#6500000
0!
09
#6750000
1!
19
1>
11
1?
1*
0:
1@
#7000000
0!
09
#7250000
1!
19
1A
0>
01
12
0B
0?
1)
0*
0@
1:
1E
1B
0C
1@
0H
0E
0F
1C
1H
1I
1F
0I
#7500000
0!
09
#7750000
1!
19
1>
11
1?
1*
0:
0B
0@
1E
0C
0H
0F
1I
#8000000
0!
09
#8250000
1!
19
1J
0G
0D
0A
0>
01
02
03
04
15
1K
1H
0E
1B
0?
1&
0'
0(
0)
0*
0I
1F
1C
1@
1:
0K
1L
1I
0F
0C
0@
0L
#8500000
0!
09
#8750000
1!
19
1>
11
1?
1*
0:
1@
#9000000
0!
09
#9250000
1!
19
1A
0>
01
12
0B
0?
1)
0*
0@
1:
1B
1C
1@
0C
#9500000
0!
09
#9750000
1!
19
1>
11
1?
1*
0:
0B
0@
1C
#10000000
0!
09
#10250000
1!
19
1D
0A
0>
01
02
13
1E
1B
0?
1(
0)
0*
0C
1@
1:
0E
1F
1C
0@
0F
#10500000
0!
09
#10750000
1!
19
1>
11
1?
1*
0:
1@
#11000000
0!
09
#11250000
1!
19
1A
0>
01
12
0B
0?
1)
0*
0@
1:
1E
1B
0C
1@
0E
1F
1C
0F
#11500000
0!
09
#11750000
1!
19
1>
11
1?
1*
0:
0B
0@
1E
0C
1F
#12000000
0!
09
#12250000
1!
19
1G
0D
0A
0>
01
02
03
14
0H
0E
1B
0?
1'
0(
0)
0*
0F
1C
1@
1:
1K
1H
0I
1F
0C
0@
0K
1L
1I
0L
#12500000
0!
09
#12750000
1!
19
1>
11
1?
1*
0:
1@
#13000000
0!
09
#13250000
1!
19
1A
0>
01
12
0B
0?
1)
0*
0@
1:
1B
1C
1@
0C
#13500000
0!
09
#13750000
1!
19
1>
11
1?
1*
0:
0B
0@
1C
#14000000
0!
09
#14250000
1!
19
1D
0A
0>
01
02
13
1E
1B
0?
1(
0)
0*
0C
1@
1:
0H
0E
0F
1C
0@
1K
1H
0I
1F
0K
1L
1I
0L
#14500000
0!
09
#14750000
1!
19
1>
11
1?
1*
0:
1@
#15000000
0!
09
#15250000
1!
19
1A
0>
01
12
0B
0?
1)
0*
0@
1:
1E
1B
0C
1@
0H
0E
0F
1C
1K
1H
0I
1F
0K
1L
1I
0L
#15500000
0!
09
#15750000
1!
19
1>
11
1?
1*
0:
0B
0@
1E
0C
0H
0F
1K
0I
1L
#16000000
0!
09
#16250000
1!
19
1M
0J
0G
0D
0A
0>
01
02
03
04
05
16
0N
0K
1H
0E
1B
0?
1%
0&
0'
0(
0)
0*
0L
1I
1F
1C
1@
1:
1N
1O
1L
0I
0F
0C
0@
0O
#16500000
0!
09
#16750000
1!
19
1>
11
1?
1*
0:
1@
#17000000
0!
09
#17250000
1!
19
1A
0>
01
12
0B
0?
1)
0*
0@
1:
1B
1C
1@
0C
#17500000
0!
09
#17750000
1!
19
1>
11
1?
1*
0:
0B
0@
1C
#18000000
0!
09
#18250000
1!
19
1D
0A
0>
01
02
13
1E
1B
0?
1(
0)
0*
0C
1@
1:
0E
1F
1C
0@
0F
#18500000
0!
09
#18750000
1!
19
1>
11
1?
1*
0:
1@
#19000000
0!
09
#19250000
1!
19
1A
0>
01
12
0B
0?
1)
0*
0@
1:
1E
1B
0C
1@
0E
1F
1C
0F
#19500000
0!
09
#19750000
1!
19
1>
11
1?
1*
0:
0B
0@
1E
0C
1F
#20000000
0!
09
#20250000
1!
19
1G
0D
0A
0>
01
02
03
14
0H
0E
1B
0?
1'
0(
0)
0*
0F
1C
1@
1:
1H
1I
1F
0C
0@
0I
#20500000
0!
09
#20750000
1!
19
1>
11
1?
1*
0:
1@
#21000000
0!
09
#21250000
1!
19
1A
0>
01
12
0B
0?
1)
0*
0@
1:
1B
1C
1@
0C
#21500000
0!
09
#21750000
1!
19
1>
11
1?
1*
0:
0B
0@
1C
#22000000
0!
09
#22250000
1!
19
1D
0A
0>
01
02
13
1E
1B
0?
1(
0)
0*
0C
1@
1:
0H
0E
0F
1C
0@
1H
1I
1F
0I
#22500000
0!
09
#22750000
1!
19
1>
11
1?
1*
0:
1@
#23000000
0!
09
#23250000
1!
19
1A
0>
01
12
0B
0?
1)
0*
0@
1:
1E
1B
0C
1@
0H
0E
0F
1C
1H
1I
1F
0I
#23500000
0!
09
#23750000
1!
19
1>
11
1?
1*
0:
0B
0@
1E
0C
0H
0F
1I
#24000000
0!
09
#24250000
1!
19
1J
0G
0D
0A
0>
01
02
03
04
15
1K
1H
0E
1B
0?
1&
0'
0(
0)
0*
0I
1F
1C
1@
1:
0N
0K
0L
1I
0F
0C
0@
1N
1O
1L
0O
#24500000
0!
09
#24750000
1!
19
1>
11
1?
1*
0:
1@
#25000000
0!
09
#25250000
1!
19
1A
0>
01
12
0B
0?
1)
0*
0@
1:
1B
1C
1@
0C
#25500000
0!
09
#25750000
1!
19
1>
11
1?
1*
0:
0B
0@
1C
#26000000
0!
09
#26250000
1!
19
1D
0A
0>
01
02
13
1E
1B
0?
1(
0)
0*
0C
1@
1:
0E
1F
1C
0@
0F
#26500000
0!
09
#26750000
1!
19
1>
11
1?
1*
0:
1@
#27000000
0!
09
#27250000
1!
19
1A
0>
01
12
0B
0?
1)
0*
0@
1:
1E
1B
0C
1@
0E
1F
1C
0F
#27500000
0!
09
#27750000
1!
19
1>
11
1?
1*
0:
0B
0@
1E
0C
1F
#28000000
0!
09
#28250000
1!
19
1G
0D
0A
0>
01
02
03
14
0H
0E
1B
0?
1'
0(
0)
0*
0F
1C
1@
1:
1K
1H
0I
1F
0C
0@
0N
0K
0L
1I
1N
1O
1L
0O
#28500000
0!
09
#28750000
1!
19
1>
11
1?
1*
0:
1@
#29000000
1"
0!
1;
09
1=
#29250000
1!
19
1<
0M
0J
0G
0>
01
04
05
06
0=
0?
0%
0&
0'
0*
0L
0I
0F
1:
0@
#29500000
0!
09
#29750000
1!
19
1>
11
1?
1*
0:
1@
#30000000
0!
09
#30250000
1!
19
1A
0>
01
12
0B
0?
1)
0*
0@
1:
1B
1C
1@
0C
#30500000
0!
09
#30750000
1!
19
1>
11
1?
1*
0:
0B
0@
1C
#31000000
0!
09
#31250000
1!
19
1D
0A
0>
01
02
13
1E
1B
0?
1(
0)
0*
0C
1@
1:
0E
1F
1C
0@
0F
#31500000
0!
09
#31750000
1!
19
1>
11
1?
1*
0:
1@
#32000000
0!
09
#32250000
1!
19
1A
0>
01
12
0B
0?
1)
0*
0@
1:
1E
1B
0C
1@
0E
1F
1C
0F
#32500000
0!
09
#32750000
1!
19
1>
11
1?
1*
0:
0B
0@
1E
0C
1F
#33000000
0!
09
#33250000
1!
19
1G
0D
0A
0>
01
02
03
14
0H
0E
1B
0?
1'
0(
0)
0*
0F
1C
1@
1:
1H
1I
1F
0C
0@
0I
#33500000
0!
09
#33750000
1!
19
1>
11
1?
1*
0:
1@
#34000000
0!
09
#34250000
1!
19
1A
0>
01
12
0B
0?
1)
0*
0@
1:
1B
1C
1@
0C
#34500000
0!
09
#34750000
1!
19
1>
11
1?
1*
0:
0B
0@
1C
#35000000
0"
0!
0;
09
#35250000
1!
19
0<
1D
0A
0>
01
02
13
1E
1B
0?
1(
0)
0*
0C
1@
1:
0H
0E
0F
1C
0@
1H
1I
1F
0I
#35500000
0!
09
#35750000
1!
19
1>
11
1?
1*
0:
1@
#36000000
0!
09
#36250000
1!
19
1A
0>
01
12
0B
0?
1)
0*
0@
1:
1E
1B
0C
1@
0H
0E
0F
1C
1H
1I
1F
0I
#36500000
0!
09
#36750000
1!
19
1>
11
1?
1*
0:
0B
0@
1E
0C
0H
0F
1I
#37000000
0!
09
#37250000
1!
19
1J
0G
0D
0A
0>
01
02
03
04
15
1K
1H
0E
1B
0?
1&
0'
0(
0)
0*
0I
1F
1C
1@
1:
0K
1L
1I
0F
0C
0@
0L
#37500000
0!
09
#37750000
1!
19
1>
11
1?
1*
0:
1@
#38000000
0!
09
#38250000
1!
19
1A
0>
01
12
0B
0?
1)
0*
0@
1:
1B
1C
1@
0C
#38500000
0!
09
#38750000
1!
19
1>
11
1?
1*
0:
0B
0@
1C
#39000000
0!
09
#39250000
1!
19
1D
0A
0>
01
02
13
1E
1B
0?
1(
0)
0*
0C
1@
1:
0E
1F
1C
0@
0F
#39500000
0!
09
#39750000
1!
19
1>
11
1?
1*
0:
1@
#40000000
0!
09
#40250000
1!
19
1A
0>
01
12
0B
0?
1)
0*
0@
1:
1E
1B
0C
1@
0E
1F
1C
0F
#40500000
0!
09
#40750000
1!
19
1>
11
1?
1*
0:
0B
0@
1E
0C
1F
#41000000
0!
09
#41250000
1!
19
1G
0D
0A
0>
01
02
03
14
0H
0E
1B
0?
1'
0(
0)
0*
0F
1C
1@
1:
1K
1H
0I
1F
0C
0@
0K
1L
1I
0L
#41500000
0!
09
#41750000
1!
19
1>
11
1?
1*
0:
1@
#42000000
0!
09
#42250000
1!
19
1A
0>
01
12
0B
0?
1)
0*
0@
1:
1B
1C
1@
0C
#42500000
0!
09
#42750000
1!
19
1>
11
1?
1*
0:
0B
0@
1C
#43000000
0!
09
#43250000
1!
19
1D
0A
0>
01
02
13
1E
1B
0?
1(
0)
0*
0C
1@
1:
0H
0E
0F
1C
0@
1K
1H
0I
1F
0K
1L
1I
0L
#43500000
0!
09
#43750000
1!
19
1>
11
1?
1*
0:
1@
#44000000
0!
09
#44250000
1!
19
1A
0>
01
12
0B
0?
1)
0*
0@
1:
1E
1B
0C
1@
0H
0E
0F
1C
1K
1H
0I
1F
0K
1L
1I
0L
#44500000
0!
09
#44750000
1!
19
1>
11
1?
1*
0:
0B
0@
1E
0C
0H
0F
1K
0I
1L
#45000000
0!
09
#45250000
1!
19
1M
0J
0G
0D
0A
0>
01
02
03
04
05
16
0N
0K
1H
0E
1B
0?
1%
0&
0'
0(
0)
0*
0L
1I
1F
1C
1@
1:
1N
1O
1L
0I
0F
0C
0@
0O
#45500000
0!
09
#45750000
1!
19
1>
11
1?
1*
0:
1@
#46000000
0!
09
#46250000
1!
19
1A
0>
01
12
0B
0?
1)
0*
0@
1:
1B
1C
1@
0C
#46500000
0!
09
#46750000
1!
19
1>
11
1?
1*
0:
0B
0@
1C
#47000000
0!
09
#47250000
1!
19
1D
0A
0>
01
02
13
1E
1B
0?
1(
0)
0*
0C
1@
1:
0E
1F
1C
0@
0F
#47500000
0!
09
#47750000
1!
19
1>
11
1?
1*
0:
1@
#48000000
0!
09
#48250000
1!
19
1A
0>
01
12
0B
0?
1)
0*
0@
1:
1E
1B
0C
1@
0E
1F
1C
0F
#48500000
0!
09
#48750000
1!
19
1>
11
1?
1*
0:
0B
0@
1E
0C
1F
#49000000
0!
09
#49250000
1!
19
1G
0D
0A
0>
01
02
03
14
0H
0E
1B
0?
1'
0(
0)
0*
0F
1C
1@
1:
1H
1I
1F
0C
0@
0I
#49500000
0!
09
#49750000
1!
19
1>
11
1?
1*
0:
1@
#50000000
0!
09
#50250000
1!
19
1A
0>
01
12
0B
0?
1)
0*
0@
1:
1B
1C
1@
0C
#50500000
0!
09
#50750000
1!
19
1>
11
1?
1*
0:
0B
0@
1C
#51000000
0!
09
#51250000
1!
19
1D
0A
0>
01
02
13
1E
1B
0?
1(
0)
0*
0C
1@
1:
0H
0E
0F
1C
0@
1H
1I
1F
0I
#51500000
0!
09
#51750000
1!
19
1>
11
1?
1*
0:
1@
#52000000
0!
09
#52250000
1!
19
1A
0>
01
12
0B
0?
1)
0*
0@
1:
1E
1B
0C
1@
0H
0E
0F
1C
1H
1I
1F
0I
#52500000
0!
09
#52750000
1!
19
1>
11
1?
1*
0:
0B
0@
1E
0C
0H
0F
1I
#53000000
0!
09
#53250000
1!
19
1J
0G
0D
0A
0>
01
02
03
04
15
1K
1H
0E
1B
0?
1&
0'
0(
0)
0*
0I
1F
1C
1@
1:
0N
0K
0L
1I
0F
0C
0@
1N
1O
1L
0O
#53500000
0!
09
#53750000
1!
19
1>
11
1?
1*
0:
1@
#54000000
0!
09
#54250000
1!
19
1A
0>
01
12
0B
0?
1)
0*
0@
1:
1B
1C
1@
0C
#54500000
0!
09
#54750000
1!
19
1>
11
1?
1*
0:
0B
0@
1C
#55000000
0!
09
#55250000
1!
19
1D
0A
0>
01
02
13
1E
1B
0?
1(
0)
0*
0C
1@
1:
0E
1F
1C
0@
0F
#55500000
0!
09
#55750000
1!
19
1>
11
1?
1*
0:
1@
#56000000
0!
09
#56250000
1!
19
1A
0>
01
12
0B
0?
1)
0*
0@
1:
1E
1B
0C
1@
0E
1F
1C
0F
#56500000
0!
09
#56750000
1!
19
1>
11
1?
1*
0:
0B
0@
1E
0C
1F
#57000000
0!
09
#57250000
1!
19
1G
0D
0A
0>
01
02
03
14
0H
0E
1B
0?
1'
0(
0)
0*
0F
1C
1@
1:
1K
1H
0I
1F
0C
0@
0N
0K
0L
1I
1N
1O
1L
0O
#57500000
0!
09
#57750000
1!
19
1>
11
1?
1*
0:
1@
#58000000
0!
09
#58250000
1!
19
1A
0>
01
12
0B
0?
1)
0*
0@
1:
1B
1C
1@
0C
#58500000
0!
09
#58750000
1!
19
1>
11
1?
1*
0:
0B
0@
1C
#59000000
1"
0!
1;
09
1=
#59250000
1!
19
1<
0M
0J
0G
0A
0>
01
02
04
05
06
0=
1B
0?
0%
0&
0'
0)
0*
0L
0I
0F
1@
1:
0C
0@
#59500000
0!
09
#59750000
1!
19
1>
11
1?
1*
0:
1@
#60000000
0!
09
#60250000
1!
19
1A
0>
01
12
0B
0?
1)
0*
0@
1:
1B
1C
1@
0C
#60500000
0!
09
#60750000
1!
19
1>
11
1?
1*
0:
0B
0@
1C
#61000000
0!
09
#61250000
1!
19
1D
0A
0>
01
02
13
1E
1B
0?
1(
0)
0*
0C
1@
1:
0E
1F
1C
0@
0F
#61500000
0!
09
#61750000
1!
19
1>
11
1?
1*
0:
1@
#62000000
0!
09
#62250000
1!
19
1A
0>
01
12
0B
0?
1)
0*
0@
1:
1E
1B
0C
1@
0E
1F
1C
0F
#62500000
0!
09
#62750000
1!
19
1>
11
1?
1*
0:
0B
0@
1E
0C
1F
#63000000
0!
09
#63250000
1!
19
1G
0D
0A
0>
01
02
03
14
0H
0E
1B
0?
1'
0(
0)
0*
0F
1C
1@
1:
1H
1I
1F
0C
0@
0I
#63500000
0!
09
#63750000
1!
19
1>
11
1?
1*
0:
1@
#64000000
0!
09
#64250000
1!
19
1A
0>
01
12
0B
0?
1)
0*
0@
1:
1B
1C
1@
0C
#64500000
0!
09
#64750000
1!
19
1>
11
1?
1*
0:
0B
0@
1C
#65000000
0"
0!
0;
09
#65250000
1!
19
0<
1D
0A
0>
01
02
13
1E
1B
0?
1(
0)
0*
0C
1@
1:
0H
0E
0F
1C
0@
1H
1I
1F
0I
#65500000
0!
09
#65750000
1!
19
1>
11
1?
1*
0:
1@
#66000000
0!
09
#66250000
1!
19
1A
0>
01
12
0B
0?
1)
0*
0@
1:
1E
1B
0C
1@
0H
0E
0F
1C
1H
1I
1F
0I
#66500000
0!
09
#66750000
1!
19
1>
11
1?
1*
0:
0B
0@
1E
0C
0H
0F
1I
#67000000
0!
09
#67250000
1!
19
1J
0G
0D
0A
0>
01
02
03
04
15
1K
1H
0E
1B
0?
1&
0'
0(
0)
0*
0I
1F
1C
1@
1:
0K
1L
1I
0F
0C
0@
0L
#67500000
0!
09
#67750000
1!
19
1>
11
1?
1*
0:
1@
#68000000
0!
09
#68250000
1!
19
1A
0>
01
12
0B
0?
1)
0*
0@
1:
1B
1C
1@
0C
#68500000
0!
09
#68750000
1!
19
1>
11
1?
1*
0:
0B
0@
1C
#69000000
0!
09
#69250000
1!
19
1D
0A
0>
01
02
13
1E
1B
0?
1(
0)
0*
0C
1@
1:
0E
1F
1C
0@
0F
#69500000
0!
09
#69750000
1!
19
1>
11
1?
1*
0:
1@
#70000000
0!
09
#70250000
1!
19
1A
0>
01
12
0B
0?
1)
0*
0@
1:
1E
1B
0C
1@
0E
1F
1C
0F
#70500000
0!
09
#70750000
1!
19
1>
11
1?
1*
0:
0B
0@
1E
0C
1F
#71000000
0!
09
#71250000
1!
19
1G
0D
0A
0>
01
02
03
14
0H
0E
1B
0?
1'
0(
0)
0*
0F
1C
1@
1:
1K
1H
0I
1F
0C
0@
0K
1L
1I
0L
#71500000
0!
09
#71750000
1!
19
1>
11
1?
1*
0:
1@
#72000000
0!
09
#72250000
1!
19
1A
0>
01
12
0B
0?
1)
0*
0@
1:
1B
1C
1@
0C
#72500000
0!
09
#72750000
1!
19
1>
11
1?
1*
0:
0B
0@
1C
#73000000
0!
09
#73250000
1!
19
1D
0A
0>
01
02
13
1E
1B
0?
1(
0)
0*
0C
1@
1:
0H
0E
0F
1C
0@
1K
1H
0I
1F
0K
1L
1I
0L
#73500000
0!
09
#73750000
1!
19
1>
11
1?
1*
0:
1@
#74000000
0!
09
#74250000
1!
19
1A
0>
01
12
0B
0?
1)
0*
0@
1:
1E
1B
0C
1@
0H
0E
0F
1C
1K
1H
0I
1F
0K
1L
1I
0L
#74500000
0!
09
#74750000
1!
19
1>
11
1?
1*
0:
0B
0@
1E
0C
0H
0F
1K
0I
1L
#75000000
0!
09
#75250000
1!
19
1M
0J
0G
0D
0A
0>
01
02
03
04
05
16
0N
0K
1H
0E
1B
0?
1%
0&
0'
0(
0)
0*
0L
1I
1F
1C
1@
1:
1N
1O
1L
0I
0F
0C
0@
0O
#75500000
0!
09
#75750000
1!
19
1>
11
1?
1*
0:
1@
#76000000
0!
09
#76250000
1!
19
1A
0>
01
12
0B
0?
1)
0*
0@
1:
1B
1C
1@
0C
#76500000
0!
09
#76750000
1!
19
1>
11
1?
1*
0:
0B
0@
1C
#77000000
0!
09
#77250000
1!
19
1D
0A
0>
01
02
13
1E
1B
0?
1(
0)
0*
0C
1@
1:
0E
1F
1C
0@
0F
#77500000
0!
09
#77750000
1!
19
1>
11
1?
1*
0:
1@
#78000000
0!
09
#78250000
1!
19
1A
0>
01
12
0B
0?
1)
0*
0@
1:
1E
1B
0C
1@
0E
1F
1C
0F
#78500000
0!
09
#78750000
1!
19
1>
11
1?
1*
0:
0B
0@
1E
0C
1F
#79000000
0!
09
#79250000
1!
19
1G
0D
0A
0>
01
02
03
14
0H
0E
1B
0?
1'
0(
0)
0*
0F
1C
1@
1:
1H
1I
1F
0C
0@
0I
#79500000
0!
09
#79750000
1!
19
1>
11
1?
1*
0:
1@
#80000000
0!
09
#80250000
1!
19
1A
0>
01
12
0B
0?
1)
0*
0@
1:
1B
1C
1@
0C
#80500000
0!
09
#80750000
1!
19
1>
11
1?
1*
0:
0B
0@
1C
#81000000
0!
09
#81250000
1!
19
1D
0A
0>
01
02
13
1E
1B
0?
1(
0)
0*
0C
1@
1:
0H
0E
0F
1C
0@
1H
1I
1F
0I
#81500000
0!
09
#81750000
1!
19
1>
11
1?
1*
0:
1@
#82000000
0!
09
#82250000
1!
19
1A
0>
01
12
0B
0?
1)
0*
0@
1:
1E
1B
0C
1@
0H
0E
0F
1C
1H
1I
1F
0I
#82500000
0!
09
#82750000
1!
19
1>
11
1?
1*
0:
0B
0@
1E
0C
0H
0F
1I
#83000000
0!
09
#83250000
1!
19
1J
0G
0D
0A
0>
01
02
03
04
15
1K
1H
0E
1B
0?
1&
0'
0(
0)
0*
0I
1F
1C
1@
1:
0N
0K
0L
1I
0F
0C
0@
1N
1O
1L
0O
#83500000
0!
09
#83750000
1!
19
1>
11
1?
1*
0:
1@
#84000000
0!
09
#84250000
1!
19
1A
0>
01
12
0B
0?
1)
0*
0@
1:
1B
1C
1@
0C
#84500000
0!
09
#84750000
1!
19
1>
11
1?
1*
0:
0B
0@
1C
#85000000
0!
09
#85250000
1!
19
1D
0A
0>
01
02
13
1E
1B
0?
1(
0)
0*
0C
1@
1:
0E
1F
1C
0@
0F
#85500000
0!
09
#85750000
1!
19
1>
11
1?
1*
0:
1@
#86000000
0!
09
#86250000
1!
19
1A
0>
01
12
0B
0?
1)
0*
0@
1:
1E
1B
0C
1@
0E
1F
1C
0F
#86500000
0!
09
#86750000
1!
19
1>
11
1?
1*
0:
0B
0@
1E
0C
1F
#87000000
0!
09
#87250000
1!
19
1G
0D
0A
0>
01
02
03
14
0H
0E
1B
0?
1'
0(
0)
0*
0F
1C
1@
1:
1K
1H
0I
1F
0C
0@
0N
0K
0L
1I
1N
1O
1L
0O
#87500000
0!
09
#87750000
1!
19
1>
11
1?
1*
0:
1@
#88000000
0!
09
#88250000
1!
19
1A
0>
01
12
0B
0?
1)
0*
0@
1:
1B
1C
1@
0C
#88500000
0!
09
#88750000
1!
19
1>
11
1?
1*
0:
0B
0@
1C
#89000000
1"
0!
1;
09
1=
#89250000
1!
19
1<
0M
0J
0G
0A
0>
01
02
04
05
06
0=
1B
0?
0%
0&
0'
0)
0*
0L
0I
0F
1@
1:
0C
0@
#89500000
0!
09
#89750000
1!
19
1>
11
1?
1*
0:
1@
#90000000
0!
09
#90250000
1!
19
1A
0>
01
12
0B
0?
1)
0*
0@
1:
1B
1C
1@
0C
#90500000
0!
09
#90750000
1!
19
1>
11
1?
1*
0:
0B
0@
1C
#91000000
0!
09
#91250000
1!
19
1D
0A
0>
01
02
13
1E
1B
0?
1(
0)
0*
0C
1@
1:
0E
1F
1C
0@
0F
#91500000
0!
09
#91750000
1!
19
1>
11
1?
1*
0:
1@
#92000000
0!
09
#92250000
1!
19
1A
0>
01
12
0B
0?
1)
0*
0@
1:
1E
1B
0C
1@
0E
1F
1C
0F
#92500000
0!
09
#92750000
1!
19
1>
11
1?
1*
0:
0B
0@
1E
0C
1F
#93000000
0!
09
#93250000
1!
19
1G
0D
0A
0>
01
02
03
14
0H
0E
1B
0?
1'
0(
0)
0*
0F
1C
1@
1:
1H
1I
1F
0C
0@
0I
#93500000
0!
09
#93750000
1!
19
1>
11
1?
1*
0:
1@
#94000000
0!
09
#94250000
1!
19
1A
0>
01
12
0B
0?
1)
0*
0@
1:
1B
1C
1@
0C
#94500000
0!
09
#94750000
1!
19
1>
11
1?
1*
0:
0B
0@
1C
#95000000
0"
0!
0;
09
#95250000
1!
19
0<
1D
0A
0>
01
02
13
1E
1B
0?
1(
0)
0*
0C
1@
1:
0H
0E
0F
1C
0@
1H
1I
1F
0I
#95500000
0!
09
#95750000
1!
19
1>
11
1?
1*
0:
1@
#96000000
0!
09
#96250000
1!
19
1A
0>
01
12
0B
0?
1)
0*
0@
1:
1E
1B
0C
1@
0H
0E
0F
1C
1H
1I
1F
0I
#96500000
0!
09
#96750000
1!
19
1>
11
1?
1*
0:
0B
0@
1E
0C
0H
0F
1I
#97000000
0!
09
#97250000
1!
19
1J
0G
0D
0A
0>
01
02
03
04
15
1K
1H
0E
1B
0?
1&
0'
0(
0)
0*
0I
1F
1C
1@
1:
0K
1L
1I
0F
0C
0@
0L
#97500000
0!
09
#97750000
1!
19
1>
11
1?
1*
0:
1@
#98000000
0!
09
#98250000
1!
19
1A
0>
01
12
0B
0?
1)
0*
0@
1:
1B
1C
1@
0C
#98500000
0!
09
#98750000
1!
19
1>
11
1?
1*
0:
0B
0@
1C
#99000000
0!
09
#99250000
1!
19
1D
0A
0>
01
02
13
1E
1B
0?
1(
0)
0*
0C
1@
1:
0E
1F
1C
0@
0F
#99500000
0!
09
#99750000
1!
19
1>
11
1?
1*
0:
1@
