telemetreAvertisseur/simulation/qsim/TelemetreAvertisseur.msim.vcd
$comment
	File created using the following command:
		vcd file TelemetreAvertisseur.msim.vcd -direction
$end
$date
	Tue Sep 28 09:39:02 2021
$end
$version
	ModelSim Version 10.5b
$end
$timescale
	1ps
$end

$scope module TelemetreAvertisseur_vlg_vec_tst $end
$var reg 1 ! Clk $end
$var reg 1 " PWM $end
$var wire 1 # AFF1 [6] $end
$var wire 1 $ AFF1 [5] $end
$var wire 1 % AFF1 [4] $end
$var wire 1 & AFF1 [3] $end
$var wire 1 ' AFF1 [2] $end
$var wire 1 ( AFF1 [1] $end
$var wire 1 ) AFF1 [0] $end
$var wire 1 * AFF2 [6] $end
$var wire 1 + AFF2 [5] $end
$var wire 1 , AFF2 [4] $end
$var wire 1 - AFF2 [3] $end
$var wire 1 . AFF2 [2] $end
$var wire 1 / AFF2 [1] $end
$var wire 1 0 AFF2 [0] $end
$var wire 1 1 AFF3 [6] $end
$var wire 1 2 AFF3 [5] $end
$var wire 1 3 AFF3 [4] $end
$var wire 1 4 AFF3 [3] $end
$var wire 1 5 AFF3 [2] $end
$var wire 1 6 AFF3 [1] $end
$var wire 1 7 AFF3 [0] $end
$var wire 1 8 LED $end

$scope module i1 $end
$var wire 1 9 gnd $end
$var wire 1 : vcc $end
$var wire 1 ; unknown $end
$var tri1 1 < devclrn $end
$var tri1 1 = devpor $end
$var tri1 1 > devoe $end
$var wire 1 ? AFF1[0]~output_o $end
$var wire 1 @ AFF1[1]~output_o $end
$var wire 1 A AFF1[2]~output_o $end
$var wire 1 B AFF1[3]~output_o $end
$var wire 1 C AFF1[4]~output_o $end
$var wire 1 D AFF1[5]~output_o $end
$var wire 1 E AFF1[6]~output_o $end
$var wire 1 F AFF2[0]~output_o $end
$var wire 1 G AFF2[1]~output_o $end
$var wire 1 H AFF2[2]~output_o $end
$var wire 1 I AFF2[3]~output_o $end
$var wire 1 J AFF2[4]~output_o $end
$var wire 1 K AFF2[5]~output_o $end
$var wire 1 L AFF2[6]~output_o $end
$var wire 1 M AFF3[0]~output_o $end
$var wire 1 N AFF3[1]~output_o $end
$var wire 1 O AFF3[2]~output_o $end
$var wire 1 P AFF3[3]~output_o $end
$var wire 1 Q AFF3[4]~output_o $end
$var wire 1 R AFF3[5]~output_o $end
$var wire 1 S AFF3[6]~output_o $end
$var wire 1 T LED~output_o $end
$var wire 1 U PWM~input_o $end
$var wire 1 V Clk~input_o $end
$var wire 1 W DivFreq|Cnt[0]~13_combout $end
$var wire 1 X DivFreq|Cnt[3]~20 $end
$var wire 1 Y DivFreq|Cnt[4]~21_combout $end
$var wire 1 Z DivFreq|Cnt[4]~22 $end
$var wire 1 [ DivFreq|Cnt[5]~23_combout $end
$var wire 1 \ DivFreq|Cnt[5]~24 $end
$var wire 1 ] DivFreq|Cnt[6]~25_combout $end
$var wire 1 ^ DivFreq|Cnt[6]~26 $end
$var wire 1 _ DivFreq|Cnt[7]~27_combout $end
$var wire 1 ` DivFreq|Cnt[7]~28 $end
$var wire 1 a DivFreq|Cnt[8]~29_combout $end
$var wire 1 b DivFreq|Cnt[8]~30 $end
$var wire 1 c DivFreq|Cnt[9]~31_combout $end
$var wire 1 d DivFreq|Cnt[9]~32 $end
$var wire 1 e DivFreq|Cnt[10]~33_combout $end
$var wire 1 f DivFreq|LessThan1~1_combout $end
$var wire 1 g DivFreq|Cnt[10]~34 $end
$var wire 1 h DivFreq|Cnt[11]~35_combout $end
$var wire 1 i DivFreq|Cnt[11]~36 $end
$var wire 1 j DivFreq|Cnt[12]~37_combout $end
$var wire 1 k DivFreq|LessThan0~0_combout $end
$var wire 1 l DivFreq|LessThan0~1_combout $end
$var wire 1 m DivFreq|Cnt[0]~14 $end
$var wire 1 n DivFreq|Cnt[1]~15_combout $end
$var wire 1 o DivFreq|Cnt[1]~16 $end
$var wire 1 p DivFreq|Cnt[2]~17_combout $end
$var wire 1 q DivFreq|Cnt[2]~18 $end
$var wire 1 r DivFreq|Cnt[3]~19_combout $end
$var wire 1 s DivFreq|LessThan1~0_combout $end
$var wire 1 t DivFreq|LessThan1~2_combout $end
$var wire 1 u DivFreq|LessThan1~3_combout $end
$var wire 1 v DivFreq|ClkOut~q $end
$var wire 1 w Telemetre|Compteur|Q[7]~8_combout $end
$var wire 1 x Telemetre|Compteur|Signal_prec~q $end
$var wire 1 y Telemetre|Compteur|always0~0_combout $end
$var wire 1 z Telemetre|Compteur|Q[7]~9 $end
$var wire 1 { Telemetre|Compteur|Q[6]~10_combout $end
$var wire 1 | Telemetre|Compteur|Q[6]~11 $end
$var wire 1 } Telemetre|Compteur|Q[5]~12_combout $end
$var wire 1 ~ Telemetre|Compteur|Q[5]~13 $end
$var wire 1 !! Telemetre|Compteur|Q[4]~14_combout $end
$var wire 1 "! Telemetre|Compteur|Q[4]~15 $end
$var wire 1 #! Telemetre|Compteur|Q[3]~16_combout $end
$var wire 1 $! Telemetre|Compteur|Q[3]~17 $end
$var wire 1 %! Telemetre|Compteur|Q[2]~18_combout $end
$var wire 1 &! Telemetre|Compteur|Q[2]~19 $end
$var wire 1 '! Telemetre|Compteur|Q[1]~20_combout $end
$var wire 1 (! Telemetre|Compteur|Q[1]~21 $end
$var wire 1 )! Telemetre|Compteur|Q[0]~22_combout $end
$var wire 1 *! Separateur|Div0|auto_generated|divider|divider|add_sub_6_result_int[2]~1 $end
$var wire 1 +! Separateur|Div0|auto_generated|divider|divider|add_sub_6_result_int[3]~3 $end
$var wire 1 ,! Separateur|Div0|auto_generated|divider|divider|add_sub_6_result_int[4]~5 $end
$var wire 1 -! Separateur|Div0|auto_generated|divider|divider|add_sub_6_result_int[5]~7 $end
$var wire 1 .! Separateur|Div0|auto_generated|divider|divider|add_sub_6_result_int[6]~9 $end
$var wire 1 /! Separateur|Div0|auto_generated|divider|divider|add_sub_6_result_int[7]~10_combout $end
$var wire 1 0! Separateur|Div0|auto_generated|divider|divider|StageOut[54]~0_combout $end
$var wire 1 1! Separateur|Div0|auto_generated|divider|divider|add_sub_6_result_int[6]~8_combout $end
$var wire 1 2! Separateur|Div0|auto_generated|divider|divider|StageOut[54]~1_combout $end
$var wire 1 3! Separateur|Div0|auto_generated|divider|divider|StageOut[53]~2_combout $end
$var wire 1 4! Separateur|Div0|auto_generated|divider|divider|add_sub_6_result_int[5]~6_combout $end
$var wire 1 5! Separateur|Div0|auto_generated|divider|divider|StageOut[53]~3_combout $end
$var wire 1 6! Separateur|Div0|auto_generated|divider|divider|StageOut[52]~4_combout $end
$var wire 1 7! Separateur|Div0|auto_generated|divider|divider|add_sub_6_result_int[4]~4_combout $end
$var wire 1 8! Separateur|Div0|auto_generated|divider|divider|StageOut[52]~5_combout $end
$var wire 1 9! Separateur|Div0|auto_generated|divider|divider|StageOut[51]~6_combout $end
$var wire 1 :! Separateur|Div0|auto_generated|divider|divider|add_sub_6_result_int[3]~2_combout $end
$var wire 1 ;! Separateur|Div0|auto_generated|divider|divider|StageOut[51]~7_combout $end
$var wire 1 <! Separateur|Div0|auto_generated|divider|divider|StageOut[50]~8_combout $end
$var wire 1 =! Separateur|Div0|auto_generated|divider|divider|add_sub_6_result_int[2]~0_combout $end
$var wire 1 >! Separateur|Div0|auto_generated|divider|divider|StageOut[50]~9_combout $end
$var wire 1 ?! Separateur|Div0|auto_generated|divider|divider|StageOut[49]~10_combout $end
$var wire 1 @! Separateur|Div0|auto_generated|divider|divider|StageOut[49]~11_combout $end
$var wire 1 A! Separateur|Div0|auto_generated|divider|divider|add_sub_7_result_int[2]~1_cout $end
$var wire 1 B! Separateur|Div0|auto_generated|divider|divider|add_sub_7_result_int[3]~3_cout $end
$var wire 1 C! Separateur|Div0|auto_generated|divider|divider|add_sub_7_result_int[4]~5_cout $end
$var wire 1 D! Separateur|Div0|auto_generated|divider|divider|add_sub_7_result_int[5]~7_cout $end
$var wire 1 E! Separateur|Div0|auto_generated|divider|divider|add_sub_7_result_int[6]~9_cout $end
$var wire 1 F! Separateur|Div0|auto_generated|divider|divider|add_sub_7_result_int[7]~11_cout $end
$var wire 1 G! Separateur|Div0|auto_generated|divider|divider|add_sub_7_result_int[8]~12_combout $end
$var wire 1 H! Separateur|Mod0|auto_generated|divider|divider|add_sub_6_result_int[2]~1 $end
$var wire 1 I! Separateur|Mod0|auto_generated|divider|divider|add_sub_6_result_int[3]~3 $end
$var wire 1 J! Separateur|Mod0|auto_generated|divider|divider|add_sub_6_result_int[4]~5 $end
$var wire 1 K! Separateur|Mod0|auto_generated|divider|divider|add_sub_6_result_int[5]~7 $end
$var wire 1 L! Separateur|Mod0|auto_generated|divider|divider|add_sub_6_result_int[6]~9 $end
$var wire 1 M! Separateur|Mod0|auto_generated|divider|divider|add_sub_6_result_int[7]~10_combout $end
$var wire 1 N! Separateur|Mod0|auto_generated|divider|divider|StageOut[51]~38_combout $end
$var wire 1 O! Separateur|Mod0|auto_generated|divider|divider|add_sub_6_result_int[3]~2_combout $end
$var wire 1 P! Separateur|Mod0|auto_generated|divider|divider|StageOut[51]~39_combout $end
$var wire 1 Q! Separateur|Mod0|auto_generated|divider|divider|StageOut[50]~40_combout $end
$var wire 1 R! Separateur|Mod0|auto_generated|divider|divider|add_sub_6_result_int[2]~0_combout $end
$var wire 1 S! Separateur|Mod0|auto_generated|divider|divider|StageOut[50]~41_combout $end
$var wire 1 T! Separateur|Mod0|auto_generated|divider|divider|StageOut[49]~42_combout $end
$var wire 1 U! Separateur|Mod0|auto_generated|divider|divider|StageOut[49]~43_combout $end
$var wire 1 V! Separateur|Mod0|auto_generated|divider|divider|add_sub_7_result_int[2]~1 $end
$var wire 1 W! Separateur|Mod0|auto_generated|divider|divider|add_sub_7_result_int[3]~3 $end
$var wire 1 X! Separateur|Mod0|auto_generated|divider|divider|add_sub_7_result_int[4]~4_combout $end
$var wire 1 Y! Separateur|Mod0|auto_generated|divider|divider|StageOut[54]~32_combout $end
$var wire 1 Z! Separateur|Mod0|auto_generated|divider|divider|add_sub_6_result_int[6]~8_combout $end
$var wire 1 [! Separateur|Mod0|auto_generated|divider|divider|StageOut[54]~33_combout $end
$var wire 1 \! Separateur|Mod0|auto_generated|divider|divider|StageOut[53]~34_combout $end
$var wire 1 ]! Separateur|Mod0|auto_generated|divider|divider|add_sub_6_result_int[5]~6_combout $end
$var wire 1 ^! Separateur|Mod0|auto_generated|divider|divider|StageOut[53]~35_combout $end
$var wire 1 _! Separateur|Mod0|auto_generated|divider|divider|StageOut[52]~36_combout $end
$var wire 1 `! Separateur|Mod0|auto_generated|divider|divider|add_sub_6_result_int[4]~4_combout $end
$var wire 1 a! Separateur|Mod0|auto_generated|divider|divider|StageOut[52]~37_combout $end
$var wire 1 b! Separateur|Mod0|auto_generated|divider|divider|add_sub_7_result_int[4]~5 $end
$var wire 1 c! Separateur|Mod0|auto_generated|divider|divider|add_sub_7_result_int[5]~7 $end
$var wire 1 d! Separateur|Mod0|auto_generated|divider|divider|add_sub_7_result_int[6]~9 $end
$var wire 1 e! Separateur|Mod0|auto_generated|divider|divider|add_sub_7_result_int[7]~11_cout $end
$var wire 1 f! Separateur|Mod0|auto_generated|divider|divider|add_sub_7_result_int[8]~12_combout $end
$var wire 1 g! Separateur|Mod0|auto_generated|divider|divider|StageOut[62]~56_combout $end
$var wire 1 h! Separateur|Mod0|auto_generated|divider|divider|add_sub_7_result_int[6]~8_combout $end
$var wire 1 i! Separateur|Mod0|auto_generated|divider|divider|StageOut[62]~44_combout $end
$var wire 1 j! Separateur|Mod0|auto_generated|divider|divider|StageOut[61]~57_combout $end
$var wire 1 k! Separateur|Mod0|auto_generated|divider|divider|add_sub_7_result_int[5]~6_combout $end
$var wire 1 l! Separateur|Mod0|auto_generated|divider|divider|StageOut[61]~45_combout $end
$var wire 1 m! Separateur|Mod0|auto_generated|divider|divider|StageOut[60]~58_combout $end
$var wire 1 n! Separateur|Mod0|auto_generated|divider|divider|StageOut[60]~46_combout $end
$var wire 1 o! Separateur|Div1|auto_generated|divider|divider|add_sub_3_result_int[1]~1 $end
$var wire 1 p! Separateur|Div1|auto_generated|divider|divider|add_sub_3_result_int[2]~3 $end
$var wire 1 q! Separateur|Div1|auto_generated|divider|divider|add_sub_3_result_int[3]~5 $end
$var wire 1 r! Separateur|Div1|auto_generated|divider|divider|add_sub_3_result_int[4]~6_combout $end
$var wire 1 s! Separateur|Div1|auto_generated|divider|divider|StageOut[16]~50_combout $end
$var wire 1 t! Separateur|Div1|auto_generated|divider|divider|add_sub_3_result_int[1]~0_combout $end
$var wire 1 u! Separateur|Div1|auto_generated|divider|divider|StageOut[16]~38_combout $end
$var wire 1 v! Separateur|Mod0|auto_generated|divider|divider|add_sub_7_result_int[3]~2_combout $end
$var wire 1 w! Separateur|Mod0|auto_generated|divider|divider|StageOut[59]~59_combout $end
$var wire 1 x! Separateur|Div1|auto_generated|divider|divider|StageOut[15]~51_combout $end
$var wire 1 y! Separateur|Mod0|auto_generated|divider|divider|StageOut[59]~47_combout $end
$var wire 1 z! Separateur|Div1|auto_generated|divider|divider|add_sub_3_result_int[0]~8_combout $end
$var wire 1 {! Separateur|Div1|auto_generated|divider|divider|StageOut[15]~39_combout $end
$var wire 1 |! Separateur|Div1|auto_generated|divider|divider|add_sub_4_result_int[1]~1 $end
$var wire 1 }! Separateur|Div1|auto_generated|divider|divider|add_sub_4_result_int[2]~2_combout $end
$var wire 1 ~! Separateur|Div1|auto_generated|divider|divider|StageOut[18]~48_combout $end
$var wire 1 !" Separateur|Div1|auto_generated|divider|divider|add_sub_3_result_int[3]~4_combout $end
$var wire 1 "" Separateur|Div1|auto_generated|divider|divider|StageOut[18]~36_combout $end
$var wire 1 #" Separateur|Div1|auto_generated|divider|divider|StageOut[17]~49_combout $end
$var wire 1 $" Separateur|Div1|auto_generated|divider|divider|add_sub_3_result_int[2]~2_combout $end
$var wire 1 %" Separateur|Div1|auto_generated|divider|divider|StageOut[17]~37_combout $end
$var wire 1 &" Separateur|Div1|auto_generated|divider|divider|add_sub_4_result_int[2]~3 $end
$var wire 1 '" Separateur|Div1|auto_generated|divider|divider|add_sub_4_result_int[3]~5 $end
$var wire 1 (" Separateur|Div1|auto_generated|divider|divider|add_sub_4_result_int[4]~7_cout $end
$var wire 1 )" Separateur|Div1|auto_generated|divider|divider|add_sub_4_result_int[5]~8_combout $end
$var wire 1 *" Separateur|Div1|auto_generated|divider|divider|StageOut[23]~52_combout $end
$var wire 1 +" Separateur|Div1|auto_generated|divider|divider|add_sub_4_result_int[3]~4_combout $end
$var wire 1 ," Separateur|Div1|auto_generated|divider|divider|StageOut[23]~40_combout $end
$var wire 1 -" Separateur|Div1|auto_generated|divider|divider|StageOut[22]~53_combout $end
$var wire 1 ." Separateur|Div1|auto_generated|divider|divider|StageOut[22]~41_combout $end
$var wire 1 /" Separateur|Div1|auto_generated|divider|divider|StageOut[21]~54_combout $end
$var wire 1 0" Separateur|Div1|auto_generated|divider|divider|add_sub_4_result_int[1]~0_combout $end
$var wire 1 1" Separateur|Div1|auto_generated|divider|divider|StageOut[21]~42_combout $end
$var wire 1 2" Separateur|Mod0|auto_generated|divider|divider|add_sub_7_result_int[2]~0_combout $end
$var wire 1 3" Separateur|Div1|auto_generated|divider|divider|StageOut[20]~58_combout $end
$var wire 1 4" Separateur|Mod0|auto_generated|divider|divider|StageOut[58]~48_combout $end
$var wire 1 5" Separateur|Mod0|auto_generated|divider|divider|StageOut[58]~49_combout $end
$var wire 1 6" Separateur|Div1|auto_generated|divider|divider|add_sub_4_result_int[0]~10_combout $end
$var wire 1 7" Separateur|Div1|auto_generated|divider|divider|StageOut[20]~43_combout $end
$var wire 1 8" Separateur|Div1|auto_generated|divider|divider|add_sub_5_result_int[1]~1 $end
$var wire 1 9" Separateur|Div1|auto_generated|divider|divider|add_sub_5_result_int[2]~3 $end
$var wire 1 :" Separateur|Div1|auto_generated|divider|divider|add_sub_5_result_int[3]~5 $end
$var wire 1 ;" Separateur|Div1|auto_generated|divider|divider|add_sub_5_result_int[4]~7_cout $end
$var wire 1 <" Separateur|Div1|auto_generated|divider|divider|add_sub_5_result_int[5]~8_combout $end
$var wire 1 =" Separateur|Div1|auto_generated|divider|divider|StageOut[28]~55_combout $end
$var wire 1 >" Separateur|Div1|auto_generated|divider|divider|add_sub_5_result_int[3]~4_combout $end
$var wire 1 ?" Separateur|Div1|auto_generated|divider|divider|StageOut[28]~44_combout $end
$var wire 1 @" Separateur|Div1|auto_generated|divider|divider|StageOut[27]~56_combout $end
$var wire 1 A" Separateur|Div1|auto_generated|divider|divider|add_sub_5_result_int[2]~2_combout $end
$var wire 1 B" Separateur|Div1|auto_generated|divider|divider|StageOut[27]~45_combout $end
$var wire 1 C" Separateur|Div1|auto_generated|divider|divider|StageOut[26]~57_combout $end
$var wire 1 D" Separateur|Div1|auto_generated|divider|divider|add_sub_5_result_int[1]~0_combout $end
$var wire 1 E" Separateur|Div1|auto_generated|divider|divider|StageOut[26]~46_combout $end
$var wire 1 F" Separateur|Mod0|auto_generated|divider|divider|StageOut[48]~51_combout $end
$var wire 1 G" Separateur|Mod0|auto_generated|divider|divider|StageOut[48]~52_combout $end
$var wire 1 H" Separateur|Mod0|auto_generated|divider|divider|add_sub_7_result_int[1]~14_combout $end
$var wire 1 I" Separateur|Div1|auto_generated|divider|divider|StageOut[25]~59_combout $end
$var wire 1 J" Separateur|Mod0|auto_generated|divider|divider|StageOut[57]~50_combout $end
$var wire 1 K" Separateur|Mod0|auto_generated|divider|divider|StageOut[57]~53_combout $end
$var wire 1 L" Separateur|Div1|auto_generated|divider|divider|add_sub_5_result_int[0]~10_combout $end
$var wire 1 M" Separateur|Div1|auto_generated|divider|divider|StageOut[25]~47_combout $end
$var wire 1 N" Separateur|Div1|auto_generated|divider|divider|add_sub_6_result_int[1]~1_cout $end
$var wire 1 O" Separateur|Div1|auto_generated|divider|divider|add_sub_6_result_int[2]~3_cout $end
$var wire 1 P" Separateur|Div1|auto_generated|divider|divider|add_sub_6_result_int[3]~5_cout $end
$var wire 1 Q" Separateur|Div1|auto_generated|divider|divider|add_sub_6_result_int[4]~7_cout $end
$var wire 1 R" Separateur|Div1|auto_generated|divider|divider|add_sub_6_result_int[5]~8_combout $end
$var wire 1 S" Separateur|Mod0|auto_generated|divider|divider|StageOut[56]~54_combout $end
$var wire 1 T" Separateur|Mod0|auto_generated|divider|divider|StageOut[56]~55_combout $end
$var wire 1 U" Separateur|Mod1|auto_generated|divider|divider|add_sub_6_result_int[0]~0_combout $end
$var wire 1 V" Separateur|Mod1|auto_generated|divider|divider|add_sub_3_result_int[1]~1 $end
$var wire 1 W" Separateur|Mod1|auto_generated|divider|divider|add_sub_3_result_int[2]~3 $end
$var wire 1 X" Separateur|Mod1|auto_generated|divider|divider|add_sub_3_result_int[3]~5 $end
$var wire 1 Y" Separateur|Mod1|auto_generated|divider|divider|add_sub_3_result_int[4]~6_combout $end
$var wire 1 Z" Separateur|Mod1|auto_generated|divider|divider|StageOut[16]~54_combout $end
$var wire 1 [" Separateur|Mod1|auto_generated|divider|divider|add_sub_3_result_int[1]~0_combout $end
$var wire 1 \" Separateur|Mod1|auto_generated|divider|divider|StageOut[16]~38_combout $end
$var wire 1 ]" Separateur|Mod1|auto_generated|divider|divider|StageOut[15]~55_combout $end
$var wire 1 ^" Separateur|Mod1|auto_generated|divider|divider|add_sub_3_result_int[0]~8_combout $end
$var wire 1 _" Separateur|Mod1|auto_generated|divider|divider|StageOut[15]~39_combout $end
$var wire 1 `" Separateur|Mod1|auto_generated|divider|divider|add_sub_4_result_int[1]~1 $end
$var wire 1 a" Separateur|Mod1|auto_generated|divider|divider|add_sub_4_result_int[2]~2_combout $end
$var wire 1 b" Separateur|Mod1|auto_generated|divider|divider|StageOut[18]~52_combout $end
$var wire 1 c" Separateur|Mod1|auto_generated|divider|divider|add_sub_3_result_int[3]~4_combout $end
$var wire 1 d" Separateur|Mod1|auto_generated|divider|divider|StageOut[18]~36_combout $end
$var wire 1 e" Separateur|Mod1|auto_generated|divider|divider|StageOut[17]~53_combout $end
$var wire 1 f" Separateur|Mod1|auto_generated|divider|divider|add_sub_3_result_int[2]~2_combout $end
$var wire 1 g" Separateur|Mod1|auto_generated|divider|divider|StageOut[17]~37_combout $end
$var wire 1 h" Separateur|Mod1|auto_generated|divider|divider|add_sub_4_result_int[2]~3 $end
$var wire 1 i" Separateur|Mod1|auto_generated|divider|divider|add_sub_4_result_int[3]~5 $end
$var wire 1 j" Separateur|Mod1|auto_generated|divider|divider|add_sub_4_result_int[4]~7_cout $end
$var wire 1 k" Separateur|Mod1|auto_generated|divider|divider|add_sub_4_result_int[5]~8_combout $end
$var wire 1 l" Separateur|Mod1|auto_generated|divider|divider|StageOut[23]~56_combout $end
$var wire 1 m" Separateur|Mod1|auto_generated|divider|divider|add_sub_4_result_int[3]~4_combout $end
$var wire 1 n" Separateur|Mod1|auto_generated|divider|divider|StageOut[23]~40_combout $end
$var wire 1 o" Separateur|Mod1|auto_generated|divider|divider|StageOut[22]~57_combout $end
$var wire 1 p" Separateur|Mod1|auto_generated|divider|divider|StageOut[22]~41_combout $end
$var wire 1 q" Separateur|Mod1|auto_generated|divider|divider|StageOut[21]~58_combout $end
$var wire 1 r" Separateur|Mod1|auto_generated|divider|divider|add_sub_4_result_int[1]~0_combout $end
$var wire 1 s" Separateur|Mod1|auto_generated|divider|divider|StageOut[21]~42_combout $end
$var wire 1 t" Separateur|Mod1|auto_generated|divider|divider|StageOut[20]~62_combout $end
$var wire 1 u" Separateur|Mod1|auto_generated|divider|divider|add_sub_4_result_int[0]~10_combout $end
$var wire 1 v" Separateur|Mod1|auto_generated|divider|divider|StageOut[20]~43_combout $end
$var wire 1 w" Separateur|Mod1|auto_generated|divider|divider|add_sub_5_result_int[1]~1 $end
$var wire 1 x" Separateur|Mod1|auto_generated|divider|divider|add_sub_5_result_int[2]~3 $end
$var wire 1 y" Separateur|Mod1|auto_generated|divider|divider|add_sub_5_result_int[3]~5 $end
$var wire 1 z" Separateur|Mod1|auto_generated|divider|divider|add_sub_5_result_int[4]~7_cout $end
$var wire 1 {" Separateur|Mod1|auto_generated|divider|divider|add_sub_5_result_int[5]~8_combout $end
$var wire 1 |" Separateur|Mod1|auto_generated|divider|divider|StageOut[28]~59_combout $end
$var wire 1 }" Separateur|Mod1|auto_generated|divider|divider|add_sub_5_result_int[3]~4_combout $end
$var wire 1 ~" Separateur|Mod1|auto_generated|divider|divider|StageOut[28]~44_combout $end
$var wire 1 !# Separateur|Mod1|auto_generated|divider|divider|StageOut[27]~60_combout $end
$var wire 1 "# Separateur|Mod1|auto_generated|divider|divider|add_sub_5_result_int[2]~2_combout $end
$var wire 1 ## Separateur|Mod1|auto_generated|divider|divider|StageOut[27]~45_combout $end
$var wire 1 $# Separateur|Mod1|auto_generated|divider|divider|StageOut[26]~61_combout $end
$var wire 1 %# Separateur|Mod1|auto_generated|divider|divider|add_sub_5_result_int[1]~0_combout $end
$var wire 1 &# Separateur|Mod1|auto_generated|divider|divider|StageOut[26]~46_combout $end
$var wire 1 '# Separateur|Mod1|auto_generated|divider|divider|StageOut[25]~63_combout $end
$var wire 1 (# Separateur|Mod1|auto_generated|divider|divider|add_sub_5_result_int[0]~10_combout $end
$var wire 1 )# Separateur|Mod1|auto_generated|divider|divider|StageOut[25]~47_combout $end
$var wire 1 *# Separateur|Mod1|auto_generated|divider|divider|add_sub_6_result_int[1]~3 $end
$var wire 1 +# Separateur|Mod1|auto_generated|divider|divider|add_sub_6_result_int[2]~5 $end
$var wire 1 ,# Separateur|Mod1|auto_generated|divider|divider|add_sub_6_result_int[3]~7 $end
$var wire 1 -# Separateur|Mod1|auto_generated|divider|divider|add_sub_6_result_int[4]~9_cout $end
$var wire 1 .# Separateur|Mod1|auto_generated|divider|divider|add_sub_6_result_int[5]~10_combout $end
$var wire 1 /# Separateur|Mod1|auto_generated|divider|divider|StageOut[30]~48_combout $end
$var wire 1 0# Separateur|Mod1|auto_generated|divider|divider|add_sub_6_result_int[1]~2_combout $end
$var wire 1 1# Separateur|Mod1|auto_generated|divider|divider|StageOut[31]~49_combout $end
$var wire 1 2# Separateur|Mod1|auto_generated|divider|divider|add_sub_6_result_int[2]~4_combout $end
$var wire 1 3# Separateur|Mod1|auto_generated|divider|divider|StageOut[32]~50_combout $end
$var wire 1 4# Separateur|Mod1|auto_generated|divider|divider|add_sub_6_result_int[3]~6_combout $end
$var wire 1 5# Separateur|Mod1|auto_generated|divider|divider|StageOut[33]~51_combout $end
$var wire 1 6# Avertisseur|LessThan0~0_combout $end
$var wire 1 7# Telemetre|Compteur|Q [0] $end
$var wire 1 8# Telemetre|Compteur|Q [1] $end
$var wire 1 9# Telemetre|Compteur|Q [2] $end
$var wire 1 :# Telemetre|Compteur|Q [3] $end
$var wire 1 ;# Telemetre|Compteur|Q [4] $end
$var wire 1 <# Telemetre|Compteur|Q [5] $end
$var wire 1 =# Telemetre|Compteur|Q [6] $end
$var wire 1 ># Telemetre|Compteur|Q [7] $end
$var wire 1 ?# DivFreq|Cnt [12] $end
$var wire 1 @# DivFreq|Cnt [11] $end
$var wire 1 A# DivFreq|Cnt [10] $end
$var wire 1 B# DivFreq|Cnt [9] $end
$var wire 1 C# DivFreq|Cnt [8] $end
$var wire 1 D# DivFreq|Cnt [7] $end
$var wire 1 E# DivFreq|Cnt [6] $end
$var wire 1 F# DivFreq|Cnt [5] $end
$var wire 1 G# DivFreq|Cnt [4] $end
$var wire 1 H# DivFreq|Cnt [3] $end
$var wire 1 I# DivFreq|Cnt [2] $end
$var wire 1 J# DivFreq|Cnt [1] $end
$var wire 1 K# DivFreq|Cnt [0] $end
$var wire 1 L# Telemetre|BasculeD|Q [7] $end
$var wire 1 M# Telemetre|BasculeD|Q [6] $end
$var wire 1 N# Telemetre|BasculeD|Q [5] $end
$var wire 1 O# Telemetre|BasculeD|Q [4] $end
$var wire 1 P# Telemetre|BasculeD|Q [3] $end
$var wire 1 Q# Telemetre|BasculeD|Q [2] $end
$var wire 1 R# Telemetre|BasculeD|Q [1] $end
$var wire 1 S# Telemetre|BasculeD|Q [0] $end
$upscope $end
$upscope $end
$enddefinitions $end
#0
$dumpvars
0!
0"
0)
0(
0'
0&
0%
0$
0#
00
0/
0.
0-
0,
0+
0*
07
06
05
04
03
02
01
18
09
1:
x;
1<
1=
1>
0?
0@
0A
0B
0C
0D
0E
0F
0G
0H
0I
0J
0K
0L
0M
0N
0O
0P
0Q
0R
0S
1T
0U
0V
1W
1X
0Y
0Z
0[
1\
0]
0^
0_
1`
0a
0b
0c
1d
0e
1f
0g
0h
1i
0j
1k
0l
0m
0n
1o
0p
0q
0r
1s
1t
1u
0v
1w
0x
0y
0z
0{
1|
0}
0~
0!!
1"!
0#!
0$!
0%!
1&!
0'!
0(!
0)!
0*!
1+!
0,!
1-!
0.!
1/!
00!
01!
02!
03!
04!
05!
06!
17!
08!
09!
1:!
0;!
0<!
1=!
0>!
0?!
0@!
0A!
1B!
0C!
1D!
0E!
1F!
1G!
0H!
1I!
0J!
1K!
0L!
1M!
0N!
1O!
0P!
0Q!
1R!
0S!
0T!
0U!
0V!
1W!
1X!
0Y!
0Z!
0[!
0\!
0]!
0^!
0_!
1`!
0a!
0b!
1c!
0d!
1e!
1f!
0g!
0h!
0i!
0j!
0k!
0l!
0m!
0n!
0o!
1p!
0q!
1r!
0s!
1t!
0u!
1v!
0w!
0x!
0y!
0z!
0{!
0|!
1}!
0~!
0!"
0""
0#"
1$"
0%"
1&"
0'"
1("
1)"
0*"
0+"
0,"
0-"
0."
0/"
10"
01"
12"
03"
04"
05"
06"
07"
08"
19"
0:"
1;"
1<"
0="
0>"
0?"
0@"
1A"
0B"
0C"
1D"
0E"
0F"
0G"
0H"
0I"
0J"
0K"
0L"
0M"
0N"
1O"
0P"
1Q"
1R"
0S"
0T"
0U"
0V"
1W"
0X"
1Y"
0Z"
1["
0\"
0]"
0^"
0_"
0`"
1a"
0b"
0c"
0d"
0e"
1f"
0g"
1h"
0i"
1j"
1k"
0l"
0m"
0n"
0o"
0p"
0q"
1r"
0s"
0t"
0u"
0v"
0w"
1x"
0y"
1z"
1{"
0|"
0}"
0~"
0!#
1"#
0##
0$#
1%#
0&#
0'#
0(#
0)#
0*#
1+#
0,#
1-#
1.#
0/#
10#
01#
12#
03#
04#
05#
06#
0>#
0=#
0<#
0;#
0:#
09#
08#
07#
0K#
0J#
0I#
0H#
0G#
0F#
0E#
0D#
0C#
0B#
0A#
0@#
0?#
0S#
0R#
0Q#
0P#
0O#
0N#
0M#
0L#
$end
#10000
1!
1V
#20000
0!
0V
1K#
1v
1m
0W
1n
1>#
1z
0w
1{
#30000
1!
1V
#40000
0!
0V
0K#
1J#
0m
0o
1W
0n
1o
1n
1p
0p
#50000
1!
1V
#60000
0!
0V
1K#
1m
0u
0W
0o
0n
1p
#70000
1!
1V
#80000
0!
0V
0K#
0J#
1I#
0v
0m
1o
1q
1W
1n
0p
0q
0n
1p
1r
0r
#90000
1!
1V
#100000
0!
0V
1K#
1m
0W
1n
#110000
1!
1V
#120000
0!
0V
0K#
1J#
0m
0o
1W
0n
1o
1q
1n
0p
0q
1p
1r
0r
#130000
1!
1V
#140000
0!
0V
1K#
0k
1m
0W
1l
0o
0n
1q
0p
1r
#150000
1!
1V
#160000
0!
0V
0K#
0J#
0I#
1k
0m
1o
0q
1u
1W
1n
1p
0l
0n
0p
0r
#170000
1!
1V
#180000
0!
0V
1K#
1v
1m
0W
1n
1=#
0>#
0|
0z
0{
1w
1|
1}
1{
0}
#190000
1!
1V
#200000
0!
0V
0K#
1J#
0m
0o
1W
0n
1o
1n
1p
0p
#210000
1!
1V
