compteurTelemetre/simulation/qsim/CompteurTelemetre.msim.vcd
$comment
	File created using the following command:
		vcd file CompteurTelemetre.msim.vcd -direction
$end
$date
	Tue Sep 28 08:30:58 2021
$end
$version
	ModelSim Version 10.5b
$end
$timescale
	1ps
$end

$scope module CompteurTelemetre_vlg_vec_tst $end
$var reg 1 ! ClkRef $end
$var reg 1 " PWM $end
$var wire 1 # Dist [7] $end
$var wire 1 $ Dist [6] $end
$var wire 1 % Dist [5] $end
$var wire 1 & Dist [4] $end
$var wire 1 ' Dist [3] $end
$var wire 1 ( Dist [2] $end
$var wire 1 ) Dist [1] $end
$var wire 1 * Dist [0] $end

$scope module i1 $end
$var wire 1 + gnd $end
$var wire 1 , vcc $end
$var wire 1 - unknown $end
$var tri1 1 . devclrn $end
$var tri1 1 / devpor $end
$var tri1 1 0 devoe $end
$var wire 1 1 Dist[0]~output_o $end
$var wire 1 2 Dist[1]~output_o $end
$var wire 1 3 Dist[2]~output_o $end
$var wire 1 4 Dist[3]~output_o $end
$var wire 1 5 Dist[4]~output_o $end
$var wire 1 6 Dist[5]~output_o $end
$var wire 1 7 Dist[6]~output_o $end
$var wire 1 8 Dist[7]~output_o $end
$var wire 1 9 PWM~input_o $end
$var wire 1 : ClkRef~input_o $end
$var wire 1 ; Compteur|Q[0]~8_combout $end
$var wire 1 < Compteur|Signal_prec~q $end
$var wire 1 = Compteur|always0~0_combout $end
$var wire 1 > Compteur|Q[0]~9 $end
$var wire 1 ? Compteur|Q[1]~10_combout $end
$var wire 1 @ Compteur|Q[1]~11 $end
$var wire 1 A Compteur|Q[2]~12_combout $end
$var wire 1 B Compteur|Q[2]~13 $end
$var wire 1 C Compteur|Q[3]~14_combout $end
$var wire 1 D Compteur|Q[3]~15 $end
$var wire 1 E Compteur|Q[4]~16_combout $end
$var wire 1 F Compteur|Q[4]~17 $end
$var wire 1 G Compteur|Q[5]~18_combout $end
$var wire 1 H Compteur|Q[5]~19 $end
$var wire 1 I Compteur|Q[6]~20_combout $end
$var wire 1 J Compteur|Q[6]~21 $end
$var wire 1 K Compteur|Q[7]~22_combout $end
$var wire 1 L Compteur|Q [7] $end
$var wire 1 M Compteur|Q [6] $end
$var wire 1 N Compteur|Q [5] $end
$var wire 1 O Compteur|Q [4] $end
$var wire 1 P Compteur|Q [3] $end
$var wire 1 Q Compteur|Q [2] $end
$var wire 1 R Compteur|Q [1] $end
$var wire 1 S Compteur|Q [0] $end
$var wire 1 T MotPaP|Q [7] $end
$var wire 1 U MotPaP|Q [6] $end
$var wire 1 V MotPaP|Q [5] $end
$var wire 1 W MotPaP|Q [4] $end
$var wire 1 X MotPaP|Q [3] $end
$var wire 1 Y MotPaP|Q [2] $end
$var wire 1 Z MotPaP|Q [1] $end
$var wire 1 [ MotPaP|Q [0] $end
$upscope $end
$upscope $end
$enddefinitions $end
#0
$dumpvars
0!
1"
0*
0)
0(
0'
0&
0%
0$
0#
0+
1,
x-
1.
1/
10
01
02
03
04
05
06
07
08
19
0:
1;
0<
1=
0>
0?
1@
0A
0B
0C
1D
0E
0F
0G
1H
0I
0J
0K
0S
0R
0Q
0P
0O
0N
0M
0L
0[
0Z
0Y
0X
0W
0V
0U
0T
$end
#500
1!
1:
#1000
0"
0!
0:
09
0=
1<
#1500
1!
1:
#2000
0!
0:
0<
1S
1>
0;
1?
#2500
1!
1:
#3000
0!
0:
0S
1R
0>
0@
1;
0?
1@
1?
1A
0A
#3500
1!
1:
#4000
0!
0:
1S
1>
0;
0@
0?
1A
#4500
1!
1:
#5000
0!
0:
0S
0R
1Q
0>
1@
1B
1;
1?
0A
0B
0?
1A
1C
0C
#5500
1!
1:
#6000
0!
0:
1S
1>
0;
1?
#6500
1!
1:
#7000
0!
0:
0S
1R
0>
0@
1;
0?
1@
1B
1?
0A
0B
1A
1C
0C
#7500
1!
1:
#8000
1"
0!
0:
19
1=
1S
1>
0;
0@
0?
1B
0A
1C
#8500
1!
1:
#9000
0!
0:
1<
0S
0R
0Q
0=
0>
1@
0B
1;
1?
1A
0?
0A
0C
#9500
1!
1:
#10000
0!
0:
1S
1>
0;
1?
#10500
1!
1:
#11000
0"
0!
0:
09
0S
1R
1[
11
0>
0@
1*
1;
0?
1@
1?
1A
0A
#11500
1!
1:
#12000
0!
0:
0<
1S
1>
0;
0@
0?
1A
#12500
1!
1:
#13000
0!
0:
0S
0R
1Q
0>
1@
1B
1;
1?
0A
0B
0?
1A
1C
0C
#13500
1!
1:
#14000
0!
0:
1S
1>
0;
1?
#14500
1!
1:
#15000
0!
0:
0S
1R
0>
0@
1;
0?
1@
1B
1?
0A
0B
1A
1C
0C
#15500
1!
1:
#16000
0!
0:
1S
1>
0;
0@
0?
1B
0A
1C
#16500
1!
1:
#17000
0!
0:
0S
0R
0Q
1P
0>
1@
0B
0D
1;
1?
1A
0C
1D
0?
0A
1C
1E
0E
#17500
1!
1:
#18000
1"
0!
0:
19
1=
1S
1>
0;
1?
#18500
1!
1:
#19000
0!
0:
1<
0S
0P
0=
0>
1;
0C
0?
#19500
1!
1:
#20000
0!
0:
1S
1>
0;
1?
#20500
1!
1:
#21000
0"
0!
0:
09
0S
1R
0>
0@
1;
0?
1@
1?
1A
0A
#21500
1!
1:
#22000
0!
0:
0<
1S
1>
0;
0@
0?
1A
#22500
1!
1:
#23000
0!
0:
0S
0R
1Q
0>
1@
1B
1;
1?
0A
0B
0?
1A
1C
0C
#23500
1!
1:
#24000
0!
0:
1S
1>
0;
1?
#24500
1!
1:
#25000
0!
0:
0S
1R
0>
0@
1;
0?
1@
1B
1?
0A
0B
1A
1C
0C
#25500
1!
1:
#26000
0!
0:
1S
1>
0;
0@
0?
1B
0A
1C
#26500
1!
1:
#27000
0!
0:
0S
0R
0Q
1P
0>
1@
0B
0D
1;
1?
1A
0C
1D
0?
0A
1C
1E
0E
#27500
1!
1:
#28000
1"
0!
0:
19
1=
1S
1>
0;
1?
#28500
1!
1:
#29000
0!
0:
1<
0S
0P
0=
0>
1;
0C
0?
#29500
1!
1:
#30000
0!
0:
1S
1>
0;
1?
#30500
1!
1:
#31000
0"
0!
0:
09
0S
1R
0>
0@
1;
0?
1@
1?
1A
0A
#31500
1!
1:
#32000
0!
0:
0<
1S
1>
0;
0@
0?
1A
#32500
1!
1:
#33000
0!
0:
0S
0R
1Q
0>
1@
1B
1;
1?
0A
0B
0?
1A
1C
0C
#33500
1!
1:
#34000
0!
0:
1S
1>
0;
1?
#34500
1!
1:
#35000
0!
0:
0S
1R
0>
0@
1;
0?
1@
1B
1?
0A
0B
1A
1C
0C
#35500
1!
1:
#36000
0!
0:
1S
1>
0;
0@
0?
1B
0A
1C
#36500
1!
1:
#37000
0!
0:
0S
0R
0Q
1P
0>
1@
0B
0D
1;
1?
1A
0C
1D
0?
0A
1C
1E
0E
#37500
1!
1:
#38000
1"
0!
0:
19
1=
1S
1>
0;
1?
#38500
1!
1:
#39000
0!
0:
1<
0S
0P
0=
0>
1;
0C
0?
#39500
1!
1:
#40000
0!
0:
1S
1>
0;
1?
#40500
1!
1:
#41000
0"
0!
0:
09
0S
1R
0>
0@
1;
0?
1@
1?
1A
0A
#41500
1!
1:
#42000
0!
0:
0<
1S
1>
0;
0@
0?
1A
#42500
1!
1:
#43000
0!
0:
0S
0R
1Q
0>
1@
1B
1;
1?
0A
0B
0?
1A
1C
0C
#43500
1!
1:
#44000
0!
0:
1S
1>
0;
1?
#44500
1!
1:
#45000
0!
0:
0S
1R
0>
0@
1;
0?
1@
1B
1?
0A
0B
1A
1C
0C
#45500
1!
1:
#46000
0!
0:
1S
1>
0;
0@
0?
1B
0A
1C
#46500
1!
1:
#47000
0!
0:
0S
0R
0Q
1P
0>
1@
0B
0D
1;
1?
1A
0C
1D
0?
0A
1C
1E
0E
#47500
1!
1:
#48000
1"
0!
0:
19
1=
1S
1>
0;
1?
#48500
1!
1:
#49000
0!
0:
1<
0S
0P
0=
0>
1;
0C
0?
#49500
1!
1:
#50000
0!
0:
1S
1>
0;
1?
#50500
1!
1:
#51000
0"
0!
0:
09
0S
1R
0>
0@
1;
0?
1@
1?
1A
0A
#51500
1!
1:
#52000
0!
0:
0<
1S
1>
0;
0@
0?
1A
#52500
1!
1:
#53000
0!
0:
0S
0R
1Q
0>
1@
1B
1;
1?
0A
0B
0?
1A
1C
0C
#53500
1!
1:
#54000
0!
0:
1S
1>
0;
1?
#54500
1!
1:
#55000
0!
0:
0S
1R
0>
0@
1;
0?
1@
1B
1?
0A
0B
1A
1C
0C
#55500
1!
1:
#56000
0!
0:
1S
1>
0;
0@
0?
1B
0A
1C
#56500
1!
1:
#57000
0!
0:
0S
0R
0Q
1P
0>
1@
0B
0D
1;
1?
1A
0C
1D
0?
0A
1C
1E
0E
#57500
1!
1:
#58000
1"
0!
0:
19
1=
1S
1>
0;
1?
#58500
1!
1:
#59000
0!
0:
1<
0S
0P
0=
0>
1;
0C
0?
#59500
1!
1:
#60000
0!
0:
1S
1>
0;
1?
#60500
1!
1:
#61000
0"
0!
0:
09
0S
1R
0>
0@
1;
0?
1@
1?
1A
0A
#61500
1!
1:
#62000
0!
0:
0<
1S
1>
0;
0@
0?
1A
#62500
1!
1:
#63000
0!
0:
0S
0R
1Q
0>
1@
1B
1;
1?
0A
0B
0?
1A
1C
0C
#63500
1!
1:
#64000
0!
0:
1S
1>
0;
1?
#64500
1!
1:
#65000
0!
0:
0S
1R
0>
0@
1;
0?
1@
1B
1?
0A
0B
1A
1C
0C
#65500
1!
1:
#66000
0!
0:
1S
1>
0;
0@
0?
1B
0A
1C
#66500
1!
1:
#67000
0!
0:
0S
0R
0Q
1P
0>
1@
0B
0D
1;
1?
1A
0C
1D
0?
0A
1C
1E
0E
#67500
1!
1:
#68000
1"
0!
0:
19
1=
1S
1>
0;
1?
#68500
1!
1:
#69000
0!
0:
1<
0S
0P
0=
0>
1;
0C
0?
#69500
1!
1:
#70000
0!
0:
1S
1>
0;
1?
#70500
1!
1:
#71000
0"
0!
0:
09
0S
1R
0>
0@
1;
0?
1@
1?
1A
0A
#71500
1!
1:
#72000
0!
0:
0<
1S
1>
0;
0@
0?
1A
#72500
1!
1:
#73000
0!
0:
0S
0R
1Q
0>
1@
1B
1;
1?
0A
0B
0?
1A
1C
0C
#73500
1!
1:
#74000
0!
0:
1S
1>
0;
1?
#74500
1!
1:
#75000
0!
0:
0S
1R
0>
0@
1;
0?
1@
1B
1?
0A
0B
1A
1C
0C
#75500
1!
1:
#76000
0!
0:
1S
1>
0;
0@
0?
1B
0A
1C
#76500
1!
1:
#77000
0!
0:
0S
0R
0Q
1P
0>
1@
0B
0D
1;
1?
1A
0C
1D
0?
0A
1C
1E
0E
#77500
1!
1:
#78000
1"
0!
0:
19
1=
1S
1>
0;
1?
#78500
1!
1:
#79000
0!
0:
1<
0S
0P
0=
0>
1;
0C
0?
#79500
1!
1:
#80000
0!
0:
1S
1>
0;
1?
#80500
1!
1:
#81000
0"
0!
0:
09
0S
1R
0>
0@
1;
0?
1@
1?
1A
0A
#81500
1!
1:
#82000
0!
0:
0<
1S
1>
0;
0@
0?
1A
#82500
1!
1:
#83000
0!
0:
0S
0R
1Q
0>
1@
1B
1;
1?
0A
0B
0?
1A
1C
0C
#83500
1!
1:
#84000
0!
0:
1S
1>
0;
1?
#84500
1!
1:
#85000
0!
0:
0S
1R
0>
0@
1;
0?
1@
1B
1?
0A
0B
1A
1C
0C
#85500
1!
1:
#86000
0!
0:
1S
1>
0;
0@
0?
1B
0A
1C
#86500
1!
1:
#87000
0!
0:
0S
0R
0Q
1P
0>
1@
0B
0D
1;
1?
1A
0C
1D
0?
0A
1C
1E
0E
#87500
1!
1:
#88000
1"
0!
0:
19
1=
1S
1>
0;
1?
#88500
1!
1:
#89000
0!
0:
1<
0S
0P
0=
0>
1;
0C
0?
#89500
1!
1:
#90000
0!
0:
1S
1>
0;
1?
#90500
1!
1:
#91000
0"
0!
0:
09
0S
1R
0>
0@
1;
0?
1@
1?
1A
0A
#91500
1!
1:
#92000
0!
0:
0<
1S
1>
0;
0@
0?
1A
#92500
1!
1:
#93000
0!
0:
0S
0R
1Q
0>
1@
1B
1;
1?
0A
0B
0?
1A
1C
0C
#93500
1!
1:
#94000
0!
0:
1S
1>
0;
1?
#94500
1!
1:
#95000
0!
0:
0S
1R
0>
0@
1;
0?
1@
1B
1?
0A
0B
1A
1C
0C
#95500
1!
1:
#96000
0!
0:
1S
1>
0;
0@
0?
1B
0A
1C
#96500
1!
1:
#97000
0!
0:
0S
0R
0Q
1P
0>
1@
0B
0D
1;
1?
1A
0C
1D
0?
0A
1C
1E
0E
#97500
1!
1:
#98000
1"
0!
0:
19
1=
1S
1>
0;
1?
#98500
1!
1:
#99000
0!
0:
1<
0S
0P
0=
0>
1;
0C
0?
#99500
1!
1:
